CPU/ALU/alu_wave.vcd
$date
	Tue Jul 06 22:10:59 2021
$end
$version
	Icarus Verilog
$end
$timescale
	100ps
$end
$scope module alu_tb $end
$var wire 32 ! RESULT [31:0] $end
$var wire 1 " BRANCH $end
$var reg 1 # CLK $end
$var reg 32 $ DATA1 [31:0] $end
$var reg 32 % DATA2 [31:0] $end
$var reg 1 & RESET $end
$var reg 5 ' SELECT [4:0] $end
$scope module myalu $end
$var wire 32 ( DATA1 [31:0] $end
$var wire 32 ) DATA2 [31:0] $end
$var wire 32 * RES_AND [31:0] $end
$var wire 32 + RES_FWD [31:0] $end
$var wire 32 , RES_OR [31:0] $end
$var wire 32 - RES_XOR [31:0] $end
$var wire 5 . SELECT [4:0] $end
$var wire 32 / RES_SUB [31:0] $end
$var wire 32 0 RES_SRL [31:0] $end
$var wire 32 1 RES_SRA [31:0] $end
$var wire 32 2 RES_SLTU [31:0] $end
$var wire 32 3 RES_SLT [31:0] $end
$var wire 32 4 RES_SLL [31:0] $end
$var wire 1 5 RES_REMU $end
$var wire 32 6 RES_REM [31:0] $end
$var wire 32 7 RES_MULHU [31:0] $end
$var wire 32 8 RES_MULHSU [31:0] $end
$var wire 32 9 RES_MULH [31:0] $end
$var wire 32 : RES_MUL [31:0] $end
$var wire 32 ; RES_DIV [31:0] $end
$var wire 32 < RES_ADD [31:0] $end
$var reg 1 " BRANCH $end
$var reg 32 = RESULT [31:0] $end
$upscope $end
$upscope $end
$enddefinitions $end
#0
$dumpvars
bx =
bx <
bx ;
bx :
bx 9
bx 8
bx 7
bx 6
x5
bx 4
bx 3
bx 2
bx 1
bx 0
bx /
bx .
bx -
bx ,
bx +
bx *
bx )
bx (
bx '
x&
bx %
bx $
0#
x"
bx !
$end
#10
1&
b0x 3
b0x 2
#40
b1010 %
b1010 )
b101 $
b101 (
b0 '
b0 .
0&
1#
#50
15
b1 3
b1 2
b0 *
b1111 ,
b1111 -
b1010 +
b1010000000000 4
b0 0
b0 1
b110010 :
b110010 9
b110010 8
b110010 7
b0 ;
b101 6
#60
b1111 !
b1111 =
b1111 <
b11111111111111111111111111111011 /
#80
b10 %
b10 )
b1 '
b1 .
0#
#90
b111 ,
b111 -
b0 3
b0 2
b10100 !
b10100 =
b10 +
b10100 4
b1 0
b1 1
b1010 :
b1010 9
b1010 8
b1010 7
b10 ;
b1 6
#100
b111 <
b11 /
#120
b11111111111111111111111111111110 %
b11111111111111111111111111111110 )
b110 $
b110 (
b10 '
b10 .
1#
#130
b1 2
b110 *
b11111111111111111111111111111110 ,
b11111111111111111111111111111000 -
05
b0 !
b0 =
b11111111111111111111111111111110 +
b0 0
b0 1
b0 4
b11111111111111111111111111110100 :
b11111111111111111111111111110100 9
b11111111111111111111111111110100 8
b11111111111111111111111111110100 7
b0 ;
b0 6
#140
b100 <
b1000 /
#160
b11 '
b11 .
0#
#170
b1 !
b1 =
#200
b111000 %
b111000 )
b1101 $
b1101 (
b100 '
b100 .
1#
#210
b1 3
b1000 *
b111101 ,
b110101 -
15
b111000 +
b1011011000 :
b1011011000 9
b1011011000 8
b1011011000 7
b1101 6
#220
b110101 !
b110101 =
b1000101 <
b11111111111111111111111111010101 /
#240
b110 '
b110 .
0#
#260
b111101 !
b111101 =
#280
b111 '
b111 .
1#
#300
b1000 !
b1000 =
#320
b1010 %
b1010 )
b1111 $
b1111 (
b10000 '
b10000 .
0#
#330
b0 3
b0 2
b1010 *
b1111 ,
b101 -
b1010 +
b11110000000000 4
b1 ;
b10010110 :
b10010110 9
b10010110 8
b10010110 7
b101 6
#340
b101 !
b101 =
b11001 <
b101 /
#360
b10 %
b10 )
b101 $
b101 (
b11000 '
b11000 .
1#
#370
b0 *
b111 ,
b111 -
b1010 !
b1010 =
b10 +
b1 0
b1 1
b1 6
b10100 4
b1010 :
b1010 9
b1010 8
b1010 7
b10 ;
#380
b111 <
b11 /
#400
b1010 $
b1010 (
b11100 '
b11100 .
0#
#410
b10 *
b1010 ,
b1000 -
05
b101 !
b101 =
b101000 4
b10 0
b10 1
b10100 :
b10100 9
b10100 8
b10100 7
b101 ;
b0 6
#420
b1100 <
b1000 /
#440
b101 %
b101 )
b11011 $
b11011 (
b11101 '
b11101 .
1#
#450
b1 *
b11111 ,
b11110 -
b10 !
b10 =
b101 +
b1101100000 4
b0 0
b0 1
b10000111 :
b10000111 9
b10000111 8
b10000111 7
b10 6
#460
b100000 <
b10110 /
