CPU Test/RISCV_CPU/cpu_wavedata.vcd
$date
	Thu Aug 12 14:49:13 2021
$end
$version
	Icarus Verilog
$end
$timescale
	100ps
$end
$scope module cpu_tb $end
$var wire 32 ! M_ADDRESS [31:0] $end
$var wire 1 " WRITE $end
$var wire 1 # READ $end
$var wire 32 $ PC [31:0] $end
$var wire 1 % M_inter_BUSYWAIT $end
$var wire 32 & M_WRITEDATA [31:0] $end
$var wire 32 ' M_READDATA [31:0] $end
$var wire 1 ( M_BUSYWAIT $end
$var wire 128 ) MEM_WRITEDATA [127:0] $end
$var wire 1 * MEM_WRITE $end
$var wire 128 + MEM_READDATA [127:0] $end
$var wire 1 , MEM_READ $end
$var wire 32 - MEM_ADDRESS [31:0] $end
$var wire 1 . I_inter_BUSYWAIT $end
$var wire 1 / I_BUSYWAIT $end
$var wire 32 0 INSTRUCTIONS [31:0] $end
$var wire 128 1 IMEM_READDATA [127:0] $end
$var wire 1 2 IMEM_READ $end
$var wire 28 3 IMEM_ADDRESS [27:0] $end
$var reg 1 4 CLK $end
$var reg 1 5 RESET $end
$scope module cpu1 $end
$var wire 1 4 CLK $end
$var wire 32 6 M_ADDRESS [31:0] $end
$var wire 1 5 RESET $end
$var wire 1 7 ZERO $end
$var wire 1 " WRITE $end
$var wire 32 8 SIGNOUT [31:0] $end
$var wire 1 9 REG_WRITE $end
$var wire 1 : REG_DEST $end
$var wire 1 # READ $end
$var wire 1 ; PC_SEL $end
$var wire 32 < PC_4 [31:0] $end
$var wire 32 = PC [31:0] $end
$var wire 1 > P4_REG_WRITE_OUT $end
$var wire 32 ? P4_PC_NEXT_OUT [31:0] $end
$var wire 32 @ P4_M_READDATA_OUT [31:0] $end
$var wire 2 A P4_MEM_TO_REG_OUT [1:0] $end
$var wire 5 B P4_IN_ADDRESS_OUT [4:0] $end
$var wire 1 C P4_AND_OUT_OUT $end
$var wire 32 D P4_ALU_OUT [31:0] $end
$var wire 1 E P3_ZERO_OUT $end
$var wire 1 F P3_REG_WRITE_OUT $end
$var wire 32 G P3_PC_NEXT_OUT [31:0] $end
$var wire 32 H P3_OUT2_OUT [31:0] $end
$var wire 3 I P3_MEM_WRITE_OUT [2:0] $end
$var wire 2 J P3_MEM_TO_REG_OUT [1:0] $end
$var wire 3 K P3_MEM_READ_OUT [2:0] $end
$var wire 5 L P3_IN_ADDRESS_OUT [4:0] $end
$var wire 1 M P3_BRANCH_OUT $end
$var wire 32 N P3_ALU_OUT [31:0] $end
$var wire 32 O P2_SIGNOUT_OUT [31:0] $end
$var wire 1 P P2_REG_WRITE_OUT $end
$var wire 1 Q P2_REG_DEST_OUT $end
$var wire 5 R P2_RD2_OUT [4:0] $end
$var wire 5 S P2_RD1_OUT [4:0] $end
$var wire 1 T P2_PC_SEL_OUT $end
$var wire 32 U P2_PC_4_OUT [31:0] $end
$var wire 32 V P2_OUT2_OUT [31:0] $end
$var wire 32 W P2_OUT1_OUT [31:0] $end
$var wire 3 X P2_MEM_WRITE_OUT [2:0] $end
$var wire 2 Y P2_MEM_TO_REG_OUT [1:0] $end
$var wire 3 Z P2_MEM_READ_OUT [2:0] $end
$var wire 3 [ P2_IMMI_SEL_OUT [2:0] $end
$var wire 1 \ P2_BRANCH_OUT $end
$var wire 2 ] P2_ALU_SOURCE_OUT [1:0] $end
$var wire 5 ^ P2_ALU_OP_OUT [4:0] $end
$var wire 32 _ P1_PC_4_OUT [31:0] $end
$var wire 32 ` P1_INSTRUCTION_OUT [31:0] $end
$var wire 32 a OUT2 [31:0] $end
$var wire 32 b OUT1 [31:0] $end
$var wire 32 c M_WRITEDATA [31:0] $end
$var wire 32 d M_READDATA_OUT [31:0] $end
$var wire 32 e M_READDATA [31:0] $end
$var wire 1 ( M_BUSYWAIT $end
$var wire 32 f MUX4_OUT [31:0] $end
$var wire 32 g MUX3_OUT [31:0] $end
$var wire 32 h MUX2_OUT [31:0] $end
$var wire 5 i MUX1_OUT [4:0] $end
$var wire 3 j MEM_WRITE [2:0] $end
$var wire 2 k MEM_TO_REG [1:0] $end
$var wire 3 l MEM_READ [2:0] $end
$var wire 1 / I_BUSYWAIT $end
$var wire 32 m INSTRUCTIONS [31:0] $end
$var wire 3 n IMMI_SEL [2:0] $end
$var wire 1 o BUSYWAIT $end
$var wire 1 p BRANCH $end
$var wire 1 q AND_OUT $end
$var wire 2 r ALU_SOURCE [1:0] $end
$var wire 32 s ALU_OUT [31:0] $end
$var wire 5 t ALU_OP [4:0] $end
$var wire 32 u ADDER_OUT [31:0] $end
$scope module AND_21 $end
$var wire 1 q Y $end
$var wire 1 E B $end
$var wire 1 M A $end
$upscope $end
$scope module MEM_READ_con1 $end
$var wire 32 v IN [31:0] $end
$var wire 3 w CON [2:0] $end
$var reg 1 # MEM_READ $end
$var reg 32 x OUT [31:0] $end
$upscope $end
$scope module OR_21 $end
$var wire 1 o Y $end
$var wire 1 ( B $end
$var wire 1 / A $end
$upscope $end
$scope module PC_UNIT1 $end
$var wire 1 o BUSY_WAIT $end
$var wire 1 4 CLK $end
$var wire 1 5 RESET $end
$var wire 1 C CON_BRANCH $end
$var wire 32 y BRANCH_PC [31:0] $end
$var reg 32 z PC [31:0] $end
$var reg 32 { PC_4 [31:0] $end
$var reg 32 | pc_hold [31:0] $end
$upscope $end
$scope module adder1 $end
$var wire 32 } INPUT2 [31:0] $end
$var wire 32 ~ INPUT1 [31:0] $end
$var reg 32 !" RESULT [31:0] $end
$upscope $end
$scope module alu1 $end
$var wire 32 "" RES_AND [31:0] $end
$var wire 32 #" RES_FWD [31:0] $end
$var wire 32 $" RES_OR [31:0] $end
$var wire 32 %" RES_XOR [31:0] $end
$var wire 5 &" SELECT [4:0] $end
$var wire 32 '" RES_SUB [31:0] $end
$var wire 32 (" RES_SRL [31:0] $end
$var wire 32 )" RES_SRA [31:0] $end
$var wire 32 *" RES_SLTU [31:0] $end
$var wire 32 +" RES_SLT [31:0] $end
$var wire 32 ," RES_SLL [31:0] $end
$var wire 1 -" RES_REMU $end
$var wire 32 ." RES_REM [31:0] $end
$var wire 32 /" RES_MULHU [31:0] $end
$var wire 32 0" RES_MULHSU [31:0] $end
$var wire 32 1" RES_MULH [31:0] $end
$var wire 32 2" RES_MUL [31:0] $end
$var wire 32 3" RES_DIV [31:0] $end
$var wire 32 4" RES_ADD [31:0] $end
$var wire 32 5" DATA2 [31:0] $end
$var wire 32 6" DATA1 [31:0] $end
$var wire 1 7" BR_BNE $end
$var wire 1 8" BR_BLTU $end
$var wire 1 9" BR_BLT $end
$var wire 1 :" BR_BGEU $end
$var wire 1 ;" BR_BGE $end
$var wire 1 <" BR_BEQ $end
$var reg 1 7 BRANCH $end
$var reg 32 =" RESULT [31:0] $end
$upscope $end
$scope module ctrl_unit1 $end
$var wire 1 4 CLK $end
$var wire 3 >" FUN3 [2:0] $end
$var wire 7 ?" FUN7 [6:0] $end
$var wire 7 @" OP [6:0] $end
$var wire 1 5 RESET $end
$var reg 5 A" ALU_OP [4:0] $end
$var reg 2 B" ALU_SOURCE [1:0] $end
$var reg 1 p BRANCH $end
$var reg 3 C" IMMI_SEL [2:0] $end
$var reg 3 D" MEM_READ [2:0] $end
$var reg 2 E" MEM_TO_REG [1:0] $end
$var reg 3 F" MEM_WRITE [2:0] $end
$var reg 1 ; PC_SEL $end
$var reg 1 : REG_DEST $end
$var reg 1 9 REG_WRITE $end
$upscope $end
$scope module mem_write_con1 $end
$var wire 32 G" IN [31:0] $end
$var wire 3 H" CON [2:0] $end
$var reg 1 " MEM_WRITE $end
$var reg 32 I" OUT [31:0] $end
$upscope $end
$scope module mux1 $end
$var wire 1 Q SEL $end
$var wire 5 J" IN1 [4:0] $end
$var wire 5 K" IN0 [4:0] $end
$var reg 5 L" OUT [4:0] $end
$upscope $end
$scope module mux2 $end
$var wire 1 T SEL $end
$var wire 32 M" IN1 [31:0] $end
$var wire 32 N" IN0 [31:0] $end
$var reg 32 O" OUT [31:0] $end
$upscope $end
$scope module mux3 $end
$var wire 2 P" SEL [1:0] $end
$var wire 32 Q" IN2 [31:0] $end
$var wire 32 R" IN1 [31:0] $end
$var wire 32 S" IN0 [31:0] $end
$var reg 32 T" OUT [31:0] $end
$upscope $end
$scope module mux_32bitx31 $end
$var wire 2 U" SEL [1:0] $end
$var wire 32 V" IN2 [31:0] $end
$var wire 32 W" IN1 [31:0] $end
$var wire 32 X" IN0 [31:0] $end
$var reg 32 Y" OUT [31:0] $end
$upscope $end
$scope module pipeline11 $end
$var wire 1 o BUSY_WAIT $end
$var wire 1 4 CLK $end
$var wire 32 Z" PC_INCREMENT4 [31:0] $end
$var wire 1 5 RESET $end
$var wire 32 [" INSTRUCTION [31:0] $end
$var reg 32 \" INSTRUCTION_OUT [31:0] $end
$var reg 32 ]" PC_INCREMENT4_OUT [31:0] $end
$upscope $end
$scope module pipeline21 $end
$var wire 5 ^" ALU_OP [4:0] $end
$var wire 2 _" ALU_SOURCE [1:0] $end
$var wire 1 p BRANCH $end
$var wire 1 o BUSY_WAIT $end
$var wire 1 4 CLK $end
$var wire 3 `" IMMI_SEL [2:0] $end
$var wire 3 a" MEM_READ [2:0] $end
$var wire 2 b" MEM_TO_REG [1:0] $end
$var wire 3 c" MEM_WRITE [2:0] $end
$var wire 32 d" PC_INCREMENT4 [31:0] $end
$var wire 1 ; PC_SEL $end
$var wire 5 e" RD1 [4:0] $end
$var wire 5 f" RD2 [4:0] $end
$var wire 1 : REG_DEST $end
$var wire 1 9 REG_WRITE $end
$var wire 1 5 RESET $end
$var wire 32 g" SIGN_EXTENDED [31:0] $end
$var wire 32 h" OUT2 [31:0] $end
$var wire 32 i" OUT1 [31:0] $end
$var reg 5 j" ALU_OP_OUT [4:0] $end
$var reg 2 k" ALU_SOURCE_OUT [1:0] $end
$var reg 1 \ BRANCH_OUT $end
$var reg 3 l" IMMI_SEL_OUT [2:0] $end
$var reg 3 m" MEM_READ_OUT [2:0] $end
$var reg 2 n" MEM_TO_REG_OUT [1:0] $end
$var reg 3 o" MEM_WRITE_OUT [2:0] $end
$var reg 32 p" OUT1_OUT [31:0] $end
$var reg 32 q" OUT2_OUT [31:0] $end
$var reg 32 r" PC_INCREMENT4_OUT [31:0] $end
$var reg 1 T PC_SEL_OUT $end
$var reg 5 s" RD1_OUT [4:0] $end
$var reg 5 t" RD2_OUT [4:0] $end
$var reg 1 Q REG_DEST_OUT $end
$var reg 1 P REG_WRITE_OUT $end
$var reg 32 u" SIGN_EXTENDED_OUT [31:0] $end
$upscope $end
$scope module pipeline31 $end
$var wire 32 v" ALU_RESULT [31:0] $end
$var wire 1 \ BRANCH_RES $end
$var wire 1 o BUSY_WAIT $end
$var wire 1 4 CLK $end
$var wire 5 w" IN_ADDRESS [4:0] $end
$var wire 3 x" MEM_READ [2:0] $end
$var wire 2 y" MEM_TO_REG [1:0] $end
$var wire 3 z" MEM_WRITE [2:0] $end
$var wire 32 {" OUT2 [31:0] $end
$var wire 32 |" PC_NEXT [31:0] $end
$var wire 1 P REG_WRITE $end
$var wire 1 5 RESET $end
$var wire 1 7 ZERO $end
$var reg 32 }" ALU_RESULT_OUT [31:0] $end
$var reg 1 M BRANCH_RES_OUT $end
$var reg 5 ~" IN_ADDRESS_OUT [4:0] $end
$var reg 3 !# MEM_READ_OUT [2:0] $end
$var reg 2 "# MEM_TO_REG_OUT [1:0] $end
$var reg 3 ## MEM_WRITE_OUT [2:0] $end
$var reg 32 $# OUT2_OUT [31:0] $end
$var reg 32 %# PC_NEXT_OUT [31:0] $end
$var reg 1 F REG_WRITE_OUT $end
$var reg 1 E ZERO_OUT $end
$upscope $end
$scope module pipeline41 $end
$var wire 32 &# ALU_RESULT [31:0] $end
$var wire 1 q BRANCH_SET $end
$var wire 1 o BUSY_WAIT $end
$var wire 1 4 CLK $end
$var wire 32 '# DATA_READED [31:0] $end
$var wire 5 (# IN_ADDRESS [4:0] $end
$var wire 2 )# MEM_TO_REG [1:0] $end
$var wire 32 *# PC_NEXT [31:0] $end
$var wire 1 F REG_WRITE $end
$var wire 1 5 RESET $end
$var reg 32 +# ALU_RESULT_OUT [31:0] $end
$var reg 1 C BRANCH_SEL_OUT $end
$var reg 32 ,# DATA_READED_OUT [31:0] $end
$var reg 5 -# IN_ADDRESS_OUT [4:0] $end
$var reg 3 .# MEM_READ_OUT [2:0] $end
$var reg 2 /# MEM_TO_REG_OUT [1:0] $end
$var reg 32 0# PC_NEXT_OUT [31:0] $end
$var reg 1 > REG_WRITE_OUT $end
$upscope $end
$scope module reg_file1 $end
$var wire 1 4 CLK $end
$var wire 32 1# IN [31:0] $end
$var wire 5 2# INADDRESS [4:0] $end
$var wire 5 3# OUT1ADDRESS [4:0] $end
$var wire 5 4# OUT2ADDRESS [4:0] $end
$var wire 1 5 RESET $end
$var wire 1 > WRITEENABLE $end
$var reg 32 5# OUT1 [31:0] $end
$var reg 32 6# OUT2 [31:0] $end
$var integer 32 7# i [31:0] $end
$var integer 32 8# wflag [31:0] $end
$upscope $end
$scope module sign1 $end
$var wire 3 9# IMMI_SEL [2:0] $end
$var wire 32 :# SIGNIN [31:0] $end
$var reg 12 ;# OFFSET [11:0] $end
$var reg 32 <# SIGNHOLD [31:0] $end
$var reg 32 =# SIGNOUT [31:0] $end
$upscope $end
$upscope $end
$scope module data_memory1 $end
$var wire 1 4 clock $end
$var wire 1 5 reset $end
$var wire 128 ># writedata [127:0] $end
$var wire 1 * write $end
$var wire 1 , read $end
$var wire 32 ?# address [31:0] $end
$var reg 1 % busywait $end
$var reg 1 @# readaccess $end
$var reg 128 A# readdata [127:0] $end
$var reg 1 B# writeaccess $end
$var integer 32 C# i [31:0] $end
$upscope $end
$scope module dcache1 $end
$var wire 32 D# address [31:0] $end
$var wire 1 4 clock $end
$var wire 1 % mem_busywait $end
$var wire 128 E# mem_readdata [127:0] $end
$var wire 1 # read $end
$var wire 1 5 reset $end
$var wire 1 " write $end
$var wire 32 F# writedata [31:0] $end
$var wire 27 G# tag [26:0] $end
$var wire 2 H# offset [1:0] $end
$var wire 3 I# index [2:0] $end
$var reg 1 ( busywait $end
$var reg 27 J# cache_tag [26:0] $end
$var reg 128 K# data [127:0] $end
$var reg 1 L# dirty $end
$var reg 1 M# hit $end
$var reg 32 N# mem_address [31:0] $end
$var reg 1 , mem_read $end
$var reg 1 * mem_write $end
$var reg 128 O# mem_writedata [127:0] $end
$var reg 3 P# next_state [2:0] $end
$var reg 32 Q# readdata [31:0] $end
$var reg 3 R# state [2:0] $end
$var reg 1 S# tagout $end
$var reg 1 T# valid $end
$var integer 32 U# i [31:0] $end
$upscope $end
$scope module instruction_cache1 $end
$var wire 1 4 clock $end
$var wire 32 V# pc [31:0] $end
$var wire 1 5 reset $end
$var wire 128 W# mem_readdata [127:0] $end
$var wire 1 . mem_busywait $end
$var reg 1 / busywait $end
$var reg 3 X# cache_tag [2:0] $end
$var reg 128 Y# data [127:0] $end
$var reg 1 Z# hit $end
$var reg 3 [# index [2:0] $end
$var reg 32 \# instruction [31:0] $end
$var reg 28 ]# mem_address [27:0] $end
$var reg 1 2 mem_read $end
$var reg 2 ^# offset [1:0] $end
$var reg 1 _# read $end
$var reg 3 `# tag [2:0] $end
$var reg 1 a# tagout $end
$var reg 1 b# valid $end
$var integer 32 c# i [31:0] $end
$upscope $end
$scope module instruction_memory1 $end
$var wire 28 d# address [27:0] $end
$var wire 1 4 clock $end
$var wire 1 2 read $end
$var reg 1 . busywait $end
$var reg 1 e# readaccess $end
$var reg 128 f# readdata [127:0] $end
$upscope $end
$upscope $end
$enddefinitions $end
#0
$dumpvars
bx f#
0e#
bx d#
bx c#
1b#
xa#
bx `#
x_#
bx ^#
bx ]#
bx \#
bx [#
xZ#
bx Y#
bx X#
bx W#
bx V#
bx U#
xT#
xS#
bx R#
bx Q#
bx P#
bx O#
bx N#
xM#
xL#
bx K#
bx J#
bz I#
bz H#
bz G#
bx F#
bx E#
bz D#
bx C#
xB#
bx A#
x@#
bx ?#
bx >#
bx =#
bx <#
bx ;#
bx :#
bx 9#
bx 8#
bx 7#
bx 6#
bx 5#
bx 4#
bx 3#
bx 2#
bx 1#
bx 0#
bx /#
bx .#
bx -#
bx ,#
bx +#
bx *#
bx )#
bx (#
bx '#
bx &#
bx %#
bx $#
bx ##
bx "#
bx !#
bx ~"
bx }"
bx |"
bx {"
bx z"
bx y"
bx x"
bx w"
bx v"
bx u"
bx t"
bx s"
bx r"
bx q"
bx p"
bx o"
bx n"
bx m"
bx l"
bx k"
bx j"
bx i"
bx h"
bx g"
bx f"
bx e"
bx d"
bx c"
bx b"
bx a"
bx `"
bx _"
bx ^"
bx ]"
bx \"
bx ["
bx Z"
bx Y"
bx X"
bx W"
bx V"
bx U"
bx T"
bx S"
bx R"
bx Q"
bx P"
bx O"
bx N"
bx M"
bx L"
bx K"
bx J"
bx I"
bx H"
bx G"
bx F"
bx E"
bx D"
bx C"
bx B"
bx A"
bx @"
bx ?"
bx >"
bx ="
x<"
x;"
x:"
x9"
x8"
x7"
bx 6"
bx 5"
bx 4"
bx 3"
bx 2"
bx 1"
bx 0"
bx /"
bx ."
x-"
bx ,"
bx +"
bx *"
bx )"
bx ("
bx '"
bx &"
bx %"
bx $"
bx #"
bx ""
bx !"
bx ~
bx }
b0 |
bx {
bx z
bx y
bx x
bx w
bx v
bx u
bx t
bx s
bx r
xq
xp
xo
bx n
bx m
bx l
bx k
bx j
bx i
bx h
bx g
bx f
bx e
bx d
bx c
bx b
bx a
bx `
bx _
bx ^
bx ]
x\
bx [
bx Z
bx Y
bx X
bx W
bx V
bx U
xT
bx S
bx R
xQ
xP
bx O
bx N
xM
bx L
bx K
bx J
bx I
bx H
bx G
xF
xE
bx D
xC
bx B
bx A
bx @
bx ?
x>
bx =
bx <
x;
x:
x9
bx 8
x7
bz 6
05
14
bx 3
02
bx 1
bx 0
x/
0.
bx -
x,
bx +
x*
bx )
x(
bx '
bx &
x%
bx $
x#
x"
bz !
$end
#10
0M#
0S#
#20
0(
b0xxxxxxxxxxxxxxxxxxxxxxxxxxxxxxxx )
b0xxxxxxxxxxxxxxxxxxxxxxxxxxxxxxxx >#
b0xxxxxxxxxxxxxxxxxxxxxxxxxxxxxxxx O#
0*
0,
b0 P#
b0 `#
b0 [#
b0 ^#
1_#
b1000 U#
b1 7#
b1000 c#
0b#
0B#
0@#
0%
b100000000 C#
b0 R#
b100 <
b100 {
b100 Z"
b0 $
b0 =
b0 z
b0 V#
15
b0x *"
b0x +"
#30
b0 f"
b0 e"
b0 4#
b0 3#
b0 ?"
b0 >"
b0 @"
b0 `
b0 \"
b0 :#
0"
0#
0q
b0 Y#
b0 X#
b0 R
b0 J"
b0 t"
b0 S
b0 K"
b0 s"
0P
b0 O
b0 ~
b0 R"
b0 u"
b11111111111111111111111111111100 U
b11111111111111111111111111111100 N"
b11111111111111111111111111111100 Q"
b11111111111111111111111111111100 r"
b0 V
b0 S"
b0 q"
b0 {"
b0 W
b0 6"
b0 M"
b0 p"
b0 ^
b0 &"
b0 j"
b0 [
b0 l"
b0 X
b0 o"
b0 z"
b0 Z
b0 m"
b0 x"
b0 ]
b0 P"
b0 k"
b0 Y
b0 n"
b0 y"
0Q
0\
0E
b0 G
b0 %#
b0 *#
b0 H
b0 G"
b0 $#
b0 N
b0 }"
b0 &#
b0 L
b0 ~"
b0 (#
b0 J
b0 "#
b0 )#
b0 I
b0 H"
b0 ##
b0 K
b0 w
b0 !#
0F
0M
0C
b0 ?
b0 V"
b0 0#
b0 @
b0 W"
b0 ,#
b0 D
b0 X"
b0 +#
b0 B
b0 -#
b0 2#
b0 A
b0 U"
b0 /#
0>
#40
b11111111111111111111111111111100 _
b11111111111111111111111111111100 ]"
b11111111111111111111111111111100 d"
1e#
1.
1o
12
b0 3
b0 ]#
b0 d#
1/
b0 g
b0 5"
b0 T"
b0 i
b0 L"
b0 w"
b0 f
b0 y
b0 Y"
b0 1#
0Z#
1a#
b100000 7#
04
#50
b0 a
b0 h"
b0 6#
b0 b
b0 i"
b0 5#
b0 ""
#60
07
b0 s
b0 ="
b0 v"
b0 *"
b0 +"
b0 %"
b0 $"
1:"
08"
1;"
09"
07"
1<"
b0 /"
b0 0"
b0 1"
b0 2"
b0 )"
b0 ("
b0 ,"
b0 '"
b0 4"
b0 #"
05
#80
14
#120
04
#160
14
#200
04
#240
14
#280
04
#320
14
#360
04
#400
14
#440
04
#480
14
bx10010011 1
bx10010011 W#
bx10010011 f#
#520
04
#560
14
#600
04
#640
14
#680
04
#720
14
#760
04
#800
14
#840
04
#880
14
bx0000000010010011 1
bx0000000010010011 W#
bx0000000010010011 f#
#920
04
#960
14
#1000
04
#1040
14
#1080
04
#1120
14
#1160
04
#1200
14
#1240
04
#1280
14
bx010100000000000010010011 1
bx010100000000000010010011 W#
bx010100000000000010010011 f#
#1320
04
#1360
14
#1400
04
#1440
14
#1480
04
#1520
14
#1560
04
#1600
14
#1640
04
#1680
14
bx00000000010100000000000010010011 1
bx00000000010100000000000010010011 W#
bx00000000010100000000000010010011 f#
#1720
04
#1760
14
#1800
04
#1840
14
#1880
04
#1920
14
#1960
04
#2000
14
#2040
04
#2080
14
bx0001001100000000010100000000000010010011 1
bx0001001100000000010100000000000010010011 W#
bx0001001100000000010100000000000010010011 f#
#2120
04
#2160
14
#2200
04
#2240
14
#2280
04
#2320
14
#2360
04
#2400
14
#2440
04
#2480
14
bx011000010001001100000000010100000000000010010011 1
bx011000010001001100000000010100000000000010010011 W#
bx011000010001001100000000010100000000000010010011 f#
#2520
04
#2560
14
#2600
04
#2640
14
#2680
04
#2720
14
#2760
04
#2800
14
#2840
04
#2880
14
bx01010000011000010001001100000000010100000000000010010011 1
bx01010000011000010001001100000000010100000000000010010011 W#
bx01010000011000010001001100000000010100000000000010010011 f#
#2920
04
#2960
14
#3000
04
#3040
14
#3080
04
#3120
14
#3160
04
#3200
14
#3240
04
#3280
14
bx0000000001010000011000010001001100000000010100000000000010010011 1
bx0000000001010000011000010001001100000000010100000000000010010011 W#
bx0000000001010000011000010001001100000000010100000000000010010011 f#
#3320
04
#3360
14
#3400
04
#3440
14
#3480
04
#3520
14
#3560
04
#3600
14
#3640
04
#3680
14
bx000100110000000001010000011000010001001100000000010100000000000010010011 1
bx000100110000000001010000011000010001001100000000010100000000000010010011 W#
bx000100110000000001010000011000010001001100000000010100000000000010010011 f#
#3720
04
#3760
14
#3800
04
#3840
14
#3880
04
#3920
14
#3960
04
#4000
14
#4040
04
#4080
14
bx00000000000100110000000001010000011000010001001100000000010100000000000010010011 1
bx00000000000100110000000001010000011000010001001100000000010100000000000010010011 W#
bx00000000000100110000000001010000011000010001001100000000010100000000000010010011 f#
#4120
04
#4160
14
#4200
04
#4240
14
#4280
04
#4320
14
#4360
04
#4400
14
#4440
04
#4480
14
bx0000000000000000000100110000000001010000011000010001001100000000010100000000000010010011 1
bx0000000000000000000100110000000001010000011000010001001100000000010100000000000010010011 W#
bx0000000000000000000100110000000001010000011000010001001100000000010100000000000010010011 f#
#4520
04
#4560
14
#4600
04
#4640
14
#4680
04
#4720
14
#4760
04
#4800
14
#4840
04
#4880
14
bx000000000000000000000000000100110000000001010000011000010001001100000000010100000000000010010011 1
bx000000000000000000000000000100110000000001010000011000010001001100000000010100000000000010010011 W#
bx000000000000000000000000000100110000000001010000011000010001001100000000010100000000000010010011 f#
#4920
04
#4960
14
#5000
04
#5040
14
#5080
04
#5120
14
#5160
04
#5200
14
#5240
04
#5280
14
bx00010011000000000000000000000000000100110000000001010000011000010001001100000000010100000000000010010011 1
bx00010011000000000000000000000000000100110000000001010000011000010001001100000000010100000000000010010011 W#
bx00010011000000000000000000000000000100110000000001010000011000010001001100000000010100000000000010010011 f#
#5320
04
#5360
14
#5400
04
#5440
14
#5480
04
#5520
14
#5560
04
#5600
14
#5640
04
#5680
14
bx0000000000010011000000000000000000000000000100110000000001010000011000010001001100000000010100000000000010010011 1
bx0000000000010011000000000000000000000000000100110000000001010000011000010001001100000000010100000000000010010011 W#
bx0000000000010011000000000000000000000000000100110000000001010000011000010001001100000000010100000000000010010011 f#
#5720
04
#5760
14
#5800
04
#5840
14
#5880
04
#5920
14
#5960
04
#6000
14
#6040
04
#6080
14
bx000000000000000000010011000000000000000000000000000100110000000001010000011000010001001100000000010100000000000010010011 1
bx000000000000000000010011000000000000000000000000000100110000000001010000011000010001001100000000010100000000000010010011 W#
bx000000000000000000010011000000000000000000000000000100110000000001010000011000010001001100000000010100000000000010010011 f#
#6120
04
#6160
14
#6200
04
#6240
14
#6280
04
#6320
14
#6360
04
#6400
14
#6440
04
#6480
1b#
b10011000000000000000000000000000100110000000001010000011000010001001100000000010100000000000010010011 Y#
bx 3
bx ]#
bx d#
02
14
0e#
0.
b10011000000000000000000000000000100110000000001010000011000010001001100000000010100000000000010010011 1
b10011000000000000000000000000000100110000000001010000011000010001001100000000010100000000000010010011 W#
b10011000000000000000000000000000100110000000001010000011000010001001100000000010100000000000010010011 f#
#6500
b10100000000000010010011 0
b10100000000000010010011 m
b10100000000000010010011 ["
b10100000000000010010011 \#
1Z#
#6520
04
#6560
0o
0_#
0/
14
#6570
bx O
bx ~
bx R"
bx u"
bx ^
bx &"
bx j"
bx [
bx l"
bx ]
bx P"
bx k"
xQ
bx @
bx W"
bx ,#
b100 |
#6580
bx X
bx o"
bx z"
bx Z
bx m"
bx x"
x\
bx G
bx %#
bx *#
b1 ^#
1_#
b1 f"
b101 e"
b101 4#
b10011 @"
b1000 <
b1000 {
b1000 Z"
b100 $
b100 =
b100 z
b100 V#
b10100000000000010010011 `
b10100000000000010010011 \"
b10100000000000010010011 :#
b100 _
b100 ]"
b100 d"
#6590
xP
bx Y
bx n"
bx y"
b0 n
b0 C"
b0 `"
b0 9#
b0 t
b0 A"
b0 ^"
1:
0p
b1 r
b1 B"
b1 _"
19
b0 k
b0 E"
b0 b"
b0 j
b0 F"
b0 c"
b0 l
b0 D"
b0 a"
#6600
b101 8
b101 g"
b101 =#
b101 <#
b10100000110000100010011 0
b10100000110000100010011 m
b10100000110000100010011 ["
b10100000110000100010011 \#
04
#6640
0_#
14
#6650
bx ?
bx V"
bx 0#
bx I
bx H"
bx ##
bx K
bx w
bx !#
xM
b101 S
b101 K"
b101 s"
b101 O
b101 ~
b101 R"
b101 u"
b100 U
b100 N"
b100 Q"
b100 r"
b0 ^
b0 &"
b0 j"
b0 [
b0 l"
b1 ]
b1 P"
b1 k"
1Q
b1000 |
b1 R
b1 J"
b1 t"
#6660
bx J
bx "#
bx )#
xF
b0 X
b0 o"
b0 z"
b0 Z
b0 m"
b0 x"
0\
b10 ^#
1_#
b10 f"
b110 >"
b101 g
b101 5"
b101 T"
b1 i
b1 L"
b1 w"
b1100 <
b1100 {
b1100 Z"
b1000 $
b1000 =
b1000 z
b1000 V#
b10100000110000100010011 `
b10100000110000100010011 \"
b10100000110000100010011 :#
b1000 _
b1000 ]"
b1000 d"
#6670
1P
b0 Y
b0 n"
b0 y"
b110 t
b110 A"
b110 ^"
#6680
b10011 0
b10011 m
b10011 ["
b10011 \#
b101 s
b101 ="
b101 v"
b1 *"
b1 +"
0-"
b101 %"
b101 $"
0:"
18"
0;"
19"
17"
0<"
b0 ."
b0 3"
b11111111111111111111111111111011 '"
b101 4"
b101 #"
04
#6720
0_#
14
#6730
b1000 U
b1000 N"
b1000 Q"
b1000 r"
b110 ^
b110 &"
b110 j"
b101 N
b101 }"
b101 &#
b0 I
b0 H"
b0 ##
b0 K
b0 w
b0 !#
0M
bx A
bx U"
bx /#
x>
b1100 |
b10 R
b10 J"
b10 t"
#6740
b1 L
b1 ~"
b1 (#
b0 J
b0 "#
b0 )#
1F
b11 ^#
1_#
b0 f"
b0 e"
b0 4#
b0 >"
b10 i
b10 L"
b10 w"
b10000 <
b10000 {
b10000 Z"
b1100 $
b1100 =
b1100 z
b1100 V#
b10011 `
b10011 \"
b10011 :#
b1100 _
b1100 ]"
b1100 d"
#6750
b0 t
b0 A"
b0 ^"
b0 8
b0 g"
b0 =#
b0 <#
#6760
04
#6800
0_#
14
#6810
b101 D
b101 X"
b101 +#
b1 B
b1 -#
b1 2#
b0 A
b0 U"
b0 /#
1>
b0 S
b0 K"
b0 s"
b0 O
b0 ~
b0 R"
b0 u"
b1100 U
b1100 N"
b1100 Q"
b1100 r"
b0 ^
b0 &"
b0 j"
b10000 |
b0 R
b0 J"
b0 t"
#6820
b10 L
b10 ~"
b10 (#
b1 [#
b0 ^#
1_#
b101 f
b101 y
b101 Y"
b101 1#
b0 g
b0 5"
b0 T"
b0 i
b0 L"
b0 w"
b10100 <
b10100 {
b10100 Z"
b10000 $
b10000 =
b10000 z
b10000 V#
b10000 _
b10000 ]"
b10000 d"
#6830
b0 Y#
0b#
#6840
1e#
1.
1o
12
b1 3
b1 ]#
b1 d#
1/
0Z#
b0 s
b0 ="
b0 v"
b0 *"
b0 +"
x-"
b0 %"
b0 $"
1:"
08"
1;"
09"
07"
1<"
bx ."
bx 3"
b0 '"
b0 4"
b0 #"
04
#6880
b1 8#
14
#6920
04
#6960
14
#7000
04
#7040
14
#7080
04
#7120
14
#7160
04
#7200
14
#7240
04
#7280
14
b10011000000000000000000000000000100110000000001010000011000010001001100000000010100000000000010110011 1
b10011000000000000000000000000000100110000000001010000011000010001001100000000010100000000000010110011 W#
b10011000000000000000000000000000100110000000001010000011000010001001100000000010100000000000010110011 f#
#7320
04
#7360
14
#7400
04
#7440
14
#7480
04
#7520
14
#7560
04
#7600
14
#7640
04
