CPU Test/RISCV_CPU/cpu_wavedata.vcd
$date
	Wed Aug 11 17:44:32 2021
$end
$version
	Icarus Verilog
$end
$timescale
	100ps
$end
$scope module cpu_tb $end
$var wire 32 ! M_ADDRESS [31:0] $end
$var wire 1 " WRITE $end
$var wire 1 # READ $end
$var wire 32 $ PC [31:0] $end
$var wire 1 % M_inter_BUSYWAIT $end
$var wire 32 & M_WRITEDATA [31:0] $end
$var wire 32 ' M_READDATA [31:0] $end
$var wire 1 ( M_BUSYWAIT $end
$var wire 128 ) MEM_WRITEDATA [127:0] $end
$var wire 1 * MEM_WRITE $end
$var wire 128 + MEM_READDATA [127:0] $end
$var wire 1 , MEM_READ $end
$var wire 32 - MEM_ADDRESS [31:0] $end
$var wire 1 . I_inter_BUSYWAIT $end
$var wire 1 / I_BUSYWAIT $end
$var wire 32 0 INSTRUCTIONS [31:0] $end
$var wire 128 1 IMEM_READDATA [127:0] $end
$var wire 1 2 IMEM_READ $end
$var wire 28 3 IMEM_ADDRESS [27:0] $end
$var reg 1 4 CLK $end
$var reg 1 5 RESET $end
$scope module cpu1 $end
$var wire 1 4 CLK $end
$var wire 32 6 M_ADDRESS [31:0] $end
$var wire 1 5 RESET $end
$var wire 1 7 ZERO $end
$var wire 1 " WRITE $end
$var wire 32 8 SIGNOUT [31:0] $end
$var wire 1 9 REG_WRITE $end
$var wire 1 : REG_DEST $end
$var wire 1 # READ $end
$var wire 1 ; PC_SEL $end
$var wire 32 < PC_4 [31:0] $end
$var wire 32 = PC [31:0] $end
$var wire 1 > P4_REG_WRITE_OUT $end
$var wire 32 ? P4_PC_NEXT_OUT [31:0] $end
$var wire 32 @ P4_M_READDATA_OUT [31:0] $end
$var wire 2 A P4_MEM_TO_REG_OUT [1:0] $end
$var wire 5 B P4_IN_ADDRESS_OUT [4:0] $end
$var wire 32 C P4_ALU_OUT [31:0] $end
$var wire 1 D P3_ZERO_OUT $end
$var wire 1 E P3_REG_WRITE_OUT $end
$var wire 32 F P3_PC_NEXT_OUT [31:0] $end
$var wire 32 G P3_OUT2_OUT [31:0] $end
$var wire 3 H P3_MEM_WRITE_OUT [2:0] $end
$var wire 2 I P3_MEM_TO_REG_OUT [1:0] $end
$var wire 3 J P3_MEM_READ_OUT [2:0] $end
$var wire 5 K P3_IN_ADDRESS_OUT [4:0] $end
$var wire 1 L P3_BRANCH_OUT $end
$var wire 32 M P3_ALU_OUT [31:0] $end
$var wire 32 N P2_SIGNOUT_OUT [31:0] $end
$var wire 1 O P2_REG_WRITE_OUT $end
$var wire 1 P P2_REG_DEST_OUT $end
$var wire 5 Q P2_RD2_OUT [4:0] $end
$var wire 5 R P2_RD1_OUT [4:0] $end
$var wire 1 S P2_PC_SEL_OUT $end
$var wire 32 T P2_PC_4_OUT [31:0] $end
$var wire 32 U P2_OUT2_OUT [31:0] $end
$var wire 32 V P2_OUT1_OUT [31:0] $end
$var wire 3 W P2_MEM_WRITE_OUT [2:0] $end
$var wire 2 X P2_MEM_TO_REG_OUT [1:0] $end
$var wire 3 Y P2_MEM_READ_OUT [2:0] $end
$var wire 3 Z P2_IMMI_SEL_OUT [2:0] $end
$var wire 1 [ P2_BRANCH_OUT $end
$var wire 2 \ P2_ALU_SOURCE_OUT [1:0] $end
$var wire 5 ] P2_ALU_OP_OUT [4:0] $end
$var wire 32 ^ P1_PC_4_OUT [31:0] $end
$var wire 32 _ P1_INSTRUCTION_OUT [31:0] $end
$var wire 32 ` OUT2 [31:0] $end
$var wire 32 a OUT1 [31:0] $end
$var wire 32 b M_WRITEDATA [31:0] $end
$var wire 32 c M_READDATA_OUT [31:0] $end
$var wire 32 d M_READDATA [31:0] $end
$var wire 1 ( M_BUSYWAIT $end
$var wire 32 e MUX4_OUT [31:0] $end
$var wire 32 f MUX3_OUT [31:0] $end
$var wire 32 g MUX2_OUT [31:0] $end
$var wire 5 h MUX1_OUT [4:0] $end
$var wire 3 i MEM_WRITE [2:0] $end
$var wire 2 j MEM_TO_REG [1:0] $end
$var wire 3 k MEM_READ [2:0] $end
$var wire 1 / I_BUSYWAIT $end
$var wire 32 l INSTRUCTIONS [31:0] $end
$var wire 3 m IMMI_SEL [2:0] $end
$var wire 1 n BUSYWAIT $end
$var wire 1 o BRANCH $end
$var wire 1 p AND_OUT $end
$var wire 2 q ALU_SOURCE [1:0] $end
$var wire 32 r ALU_OUT [31:0] $end
$var wire 5 s ALU_OP [4:0] $end
$var wire 32 t ADDER_OUT [31:0] $end
$scope module AND_21 $end
$var wire 1 p Y $end
$var wire 1 D B $end
$var wire 1 L A $end
$upscope $end
$scope module MEM_READ_con1 $end
$var wire 32 u IN [31:0] $end
$var wire 3 v CON [2:0] $end
$var reg 1 # MEM_READ $end
$var reg 32 w OUT [31:0] $end
$upscope $end
$scope module OR_21 $end
$var wire 1 n Y $end
$var wire 1 ( B $end
$var wire 1 / A $end
$upscope $end
$scope module PC_UNIT1 $end
$var wire 1 n BUSY_WAIT $end
$var wire 1 4 CLK $end
$var wire 1 p CON_BRANCH $end
$var wire 1 5 RESET $end
$var wire 32 x BRANCH_PC [31:0] $end
$var reg 32 y PC [31:0] $end
$var reg 32 z PC_4 [31:0] $end
$var reg 32 { pc_hold [31:0] $end
$upscope $end
$scope module adder1 $end
$var wire 32 | INPUT2 [31:0] $end
$var wire 32 } INPUT1 [31:0] $end
$var reg 32 ~ RESULT [31:0] $end
$upscope $end
$scope module alu1 $end
$var wire 32 !" RES_AND [31:0] $end
$var wire 32 "" RES_FWD [31:0] $end
$var wire 32 #" RES_OR [31:0] $end
$var wire 32 $" RES_XOR [31:0] $end
$var wire 5 %" SELECT [4:0] $end
$var wire 32 &" RES_SUB [31:0] $end
$var wire 32 '" RES_SRL [31:0] $end
$var wire 32 (" RES_SRA [31:0] $end
$var wire 32 )" RES_SLTU [31:0] $end
$var wire 32 *" RES_SLT [31:0] $end
$var wire 32 +" RES_SLL [31:0] $end
$var wire 1 ," RES_REMU $end
$var wire 32 -" RES_REM [31:0] $end
$var wire 32 ." RES_MULHU [31:0] $end
$var wire 32 /" RES_MULHSU [31:0] $end
$var wire 32 0" RES_MULH [31:0] $end
$var wire 32 1" RES_MUL [31:0] $end
$var wire 32 2" RES_DIV [31:0] $end
$var wire 32 3" RES_ADD [31:0] $end
$var wire 32 4" DATA2 [31:0] $end
$var wire 32 5" DATA1 [31:0] $end
$var wire 1 6" BR_BNE $end
$var wire 1 7" BR_BLTU $end
$var wire 1 8" BR_BLT $end
$var wire 1 9" BR_BGEU $end
$var wire 1 :" BR_BGE $end
$var wire 1 ;" BR_BEQ $end
$var reg 1 7 BRANCH $end
$var reg 32 <" RESULT [31:0] $end
$upscope $end
$scope module ctrl_unit1 $end
$var wire 1 4 CLK $end
$var wire 3 =" FUN3 [2:0] $end
$var wire 7 >" FUN7 [6:0] $end
$var wire 7 ?" OP [6:0] $end
$var wire 1 5 RESET $end
$var reg 5 @" ALU_OP [4:0] $end
$var reg 2 A" ALU_SOURCE [1:0] $end
$var reg 1 o BRANCH $end
$var reg 3 B" IMMI_SEL [2:0] $end
$var reg 3 C" MEM_READ [2:0] $end
$var reg 2 D" MEM_TO_REG [1:0] $end
$var reg 3 E" MEM_WRITE [2:0] $end
$var reg 1 ; PC_SEL $end
$var reg 1 : REG_DEST $end
$var reg 1 9 REG_WRITE $end
$upscope $end
$scope module mem_write_con1 $end
$var wire 32 F" IN [31:0] $end
$var wire 3 G" CON [2:0] $end
$var reg 1 " MEM_WRITE $end
$var reg 32 H" OUT [31:0] $end
$upscope $end
$scope module mux1 $end
$var wire 1 P SEL $end
$var wire 5 I" IN1 [4:0] $end
$var wire 5 J" IN0 [4:0] $end
$var reg 5 K" OUT [4:0] $end
$upscope $end
$scope module mux2 $end
$var wire 1 S SEL $end
$var wire 32 L" IN1 [31:0] $end
$var wire 32 M" IN0 [31:0] $end
$var reg 32 N" OUT [31:0] $end
$upscope $end
$scope module mux3 $end
$var wire 2 O" SEL [1:0] $end
$var wire 32 P" IN2 [31:0] $end
$var wire 32 Q" IN1 [31:0] $end
$var wire 32 R" IN0 [31:0] $end
$var reg 32 S" OUT [31:0] $end
$upscope $end
$scope module mux_32bitx31 $end
$var wire 2 T" SEL [1:0] $end
$var wire 32 U" IN2 [31:0] $end
$var wire 32 V" IN1 [31:0] $end
$var wire 32 W" IN0 [31:0] $end
$var reg 32 X" OUT [31:0] $end
$upscope $end
$scope module pipeline11 $end
$var wire 1 n BUSY_WAIT $end
$var wire 1 4 CLK $end
$var wire 32 Y" PC_INCREMENT4 [31:0] $end
$var wire 1 5 RESET $end
$var wire 32 Z" INSTRUCTION [31:0] $end
$var reg 32 [" INSTRUCTION_OUT [31:0] $end
$var reg 32 \" PC_INCREMENT4_OUT [31:0] $end
$upscope $end
$scope module pipeline21 $end
$var wire 5 ]" ALU_OP [4:0] $end
$var wire 2 ^" ALU_SOURCE [1:0] $end
$var wire 1 o BRANCH $end
$var wire 1 n BUSY_WAIT $end
$var wire 1 4 CLK $end
$var wire 3 _" IMMI_SEL [2:0] $end
$var wire 3 `" MEM_READ [2:0] $end
$var wire 2 a" MEM_TO_REG [1:0] $end
$var wire 3 b" MEM_WRITE [2:0] $end
$var wire 32 c" PC_INCREMENT4 [31:0] $end
$var wire 1 ; PC_SEL $end
$var wire 5 d" RD1 [4:0] $end
$var wire 5 e" RD2 [4:0] $end
$var wire 1 : REG_DEST $end
$var wire 1 9 REG_WRITE $end
$var wire 1 5 RESET $end
$var wire 32 f" SIGN_EXTENDED [31:0] $end
$var wire 32 g" OUT2 [31:0] $end
$var wire 32 h" OUT1 [31:0] $end
$var reg 5 i" ALU_OP_OUT [4:0] $end
$var reg 2 j" ALU_SOURCE_OUT [1:0] $end
$var reg 1 [ BRANCH_OUT $end
$var reg 3 k" IMMI_SEL_OUT [2:0] $end
$var reg 3 l" MEM_READ_OUT [2:0] $end
$var reg 2 m" MEM_TO_REG_OUT [1:0] $end
$var reg 3 n" MEM_WRITE_OUT [2:0] $end
$var reg 32 o" OUT1_OUT [31:0] $end
$var reg 32 p" OUT2_OUT [31:0] $end
$var reg 32 q" PC_INCREMENT4_OUT [31:0] $end
$var reg 1 S PC_SEL_OUT $end
$var reg 5 r" RD1_OUT [4:0] $end
$var reg 5 s" RD2_OUT [4:0] $end
$var reg 1 P REG_DEST_OUT $end
$var reg 1 O REG_WRITE_OUT $end
$var reg 32 t" SIGN_EXTENDED_OUT [31:0] $end
$upscope $end
$scope module pipeline31 $end
$var wire 32 u" ALU_RESULT [31:0] $end
$var wire 1 [ BRANCH_RES $end
$var wire 1 n BUSY_WAIT $end
$var wire 1 4 CLK $end
$var wire 5 v" IN_ADDRESS [4:0] $end
$var wire 3 w" MEM_READ [2:0] $end
$var wire 2 x" MEM_TO_REG [1:0] $end
$var wire 3 y" MEM_WRITE [2:0] $end
$var wire 32 z" OUT2 [31:0] $end
$var wire 32 {" PC_NEXT [31:0] $end
$var wire 1 O REG_WRITE $end
$var wire 1 5 RESET $end
$var wire 1 7 ZERO $end
$var reg 32 |" ALU_RESULT_OUT [31:0] $end
$var reg 1 L BRANCH_RES_OUT $end
$var reg 5 }" IN_ADDRESS_OUT [4:0] $end
$var reg 3 ~" MEM_READ_OUT [2:0] $end
$var reg 2 !# MEM_TO_REG_OUT [1:0] $end
$var reg 3 "# MEM_WRITE_OUT [2:0] $end
$var reg 32 ## OUT2_OUT [31:0] $end
$var reg 32 $# PC_NEXT_OUT [31:0] $end
$var reg 1 E REG_WRITE_OUT $end
$var reg 1 D ZERO_OUT $end
$upscope $end
$scope module pipeline41 $end
$var wire 32 %# ALU_RESULT [31:0] $end
$var wire 1 n BUSY_WAIT $end
$var wire 1 4 CLK $end
$var wire 32 &# DATA_READED [31:0] $end
$var wire 5 '# IN_ADDRESS [4:0] $end
$var wire 2 (# MEM_TO_REG [1:0] $end
$var wire 32 )# PC_NEXT [31:0] $end
$var wire 1 E REG_WRITE $end
$var wire 1 5 RESET $end
$var reg 32 *# ALU_RESULT_OUT [31:0] $end
$var reg 32 +# DATA_READED_OUT [31:0] $end
$var reg 5 ,# IN_ADDRESS_OUT [4:0] $end
$var reg 3 -# MEM_READ_OUT [2:0] $end
$var reg 2 .# MEM_TO_REG_OUT [1:0] $end
$var reg 32 /# PC_NEXT_OUT [31:0] $end
$var reg 1 > REG_WRITE_OUT $end
$upscope $end
$scope module reg_file1 $end
$var wire 1 4 CLK $end
$var wire 32 0# IN [31:0] $end
$var wire 5 1# INADDRESS [4:0] $end
$var wire 5 2# OUT1ADDRESS [4:0] $end
$var wire 5 3# OUT2ADDRESS [4:0] $end
$var wire 1 5 RESET $end
$var wire 1 > WRITEENABLE $end
$var reg 32 4# OUT1 [31:0] $end
$var reg 32 5# OUT2 [31:0] $end
$var integer 32 6# i [31:0] $end
$var integer 32 7# wflag [31:0] $end
$upscope $end
$scope module sign1 $end
$var wire 3 8# IMMI_SEL [2:0] $end
$var wire 32 9# SIGNIN [31:0] $end
$var reg 12 :# OFFSET [11:0] $end
$var reg 32 ;# SIGNHOLD [31:0] $end
$var reg 32 <# SIGNOUT [31:0] $end
$upscope $end
$upscope $end
$scope module data_memory1 $end
$var wire 1 4 clock $end
$var wire 1 5 reset $end
$var wire 128 =# writedata [127:0] $end
$var wire 1 * write $end
$var wire 1 , read $end
$var wire 32 ># address [31:0] $end
$var reg 1 % busywait $end
$var reg 1 ?# readaccess $end
$var reg 128 @# readdata [127:0] $end
$var reg 1 A# writeaccess $end
$var integer 32 B# i [31:0] $end
$upscope $end
$scope module dcache1 $end
$var wire 32 C# address [31:0] $end
$var wire 1 4 clock $end
$var wire 1 % mem_busywait $end
$var wire 128 D# mem_readdata [127:0] $end
$var wire 1 # read $end
$var wire 1 5 reset $end
$var wire 1 " write $end
$var wire 32 E# writedata [31:0] $end
$var wire 27 F# tag [26:0] $end
$var wire 2 G# offset [1:0] $end
$var wire 3 H# index [2:0] $end
$var reg 1 ( busywait $end
$var reg 27 I# cache_tag [26:0] $end
$var reg 128 J# data [127:0] $end
$var reg 1 K# dirty $end
$var reg 1 L# hit $end
$var reg 32 M# mem_address [31:0] $end
$var reg 1 , mem_read $end
$var reg 1 * mem_write $end
$var reg 128 N# mem_writedata [127:0] $end
$var reg 3 O# next_state [2:0] $end
$var reg 32 P# readdata [31:0] $end
$var reg 3 Q# state [2:0] $end
$var reg 1 R# tagout $end
$var reg 1 S# valid $end
$var integer 32 T# i [31:0] $end
$upscope $end
$scope module instruction_cache1 $end
$var wire 1 4 clock $end
$var wire 32 U# pc [31:0] $end
$var wire 1 5 reset $end
$var wire 128 V# mem_readdata [127:0] $end
$var wire 1 . mem_busywait $end
$var reg 1 / busywait $end
$var reg 3 W# cache_tag [2:0] $end
$var reg 128 X# data [127:0] $end
$var reg 1 Y# hit $end
$var reg 3 Z# index [2:0] $end
$var reg 32 [# instruction [31:0] $end
$var reg 28 \# mem_address [27:0] $end
$var reg 1 2 mem_read $end
$var reg 2 ]# offset [1:0] $end
$var reg 1 ^# read $end
$var reg 3 _# tag [2:0] $end
$var reg 1 `# tagout $end
$var reg 1 a# valid $end
$var integer 32 b# i [31:0] $end
$upscope $end
$scope module instruction_memory1 $end
$var wire 28 c# address [27:0] $end
$var wire 1 4 clock $end
$var wire 1 2 read $end
$var reg 1 . busywait $end
$var reg 1 d# readaccess $end
$var reg 128 e# readdata [127:0] $end
$upscope $end
$upscope $end
$enddefinitions $end
#0
$dumpvars
bx e#
0d#
bx c#
bx b#
1a#
x`#
bx _#
x^#
bx ]#
bx \#
bx [#
bx Z#
xY#
bx X#
bx W#
bx V#
bx U#
bx T#
xS#
xR#
bx Q#
bx P#
bx O#
bx N#
bx M#
xL#
xK#
bx J#
bx I#
bz H#
bz G#
bz F#
bx E#
bx D#
bz C#
bx B#
xA#
bx @#
x?#
bx >#
bx =#
bx <#
bx ;#
bx :#
bx 9#
bx 8#
bx 7#
bx 6#
bx 5#
bx 4#
bx 3#
bx 2#
bx 1#
bx 0#
bx /#
bx .#
bx -#
bx ,#
bx +#
bx *#
bx )#
bx (#
bx '#
bx &#
bx %#
bx $#
bx ##
bx "#
bx !#
bx ~"
bx }"
bx |"
bx {"
bx z"
bx y"
bx x"
bx w"
bx v"
bx u"
bx t"
bx s"
bx r"
bx q"
bx p"
bx o"
bx n"
bx m"
bx l"
bx k"
bx j"
bx i"
bx h"
bx g"
bx f"
bx e"
bx d"
bx c"
bx b"
bx a"
bx `"
bx _"
bx ^"
bx ]"
bx \"
bx ["
bx Z"
bx Y"
bx X"
bx W"
bx V"
bx U"
bx T"
bx S"
bx R"
bx Q"
bx P"
bx O"
bx N"
bx M"
bx L"
bx K"
bx J"
bx I"
bx H"
bx G"
bx F"
bx E"
bx D"
bx C"
bx B"
bx A"
bx @"
bx ?"
bx >"
bx ="
bx <"
x;"
x:"
x9"
x8"
x7"
x6"
bx 5"
bx 4"
bx 3"
bx 2"
bx 1"
bx 0"
bx /"
bx ."
bx -"
x,"
bx +"
bx *"
bx )"
bx ("
bx '"
bx &"
bx %"
bx $"
bx #"
bx ""
bx !"
bx ~
bx }
bx |
b0 {
bx z
bx y
bx x
bx w
bx v
bx u
bx t
bx s
bx r
bx q
xp
xo
xn
bx m
bx l
bx k
bx j
bx i
bx h
bx g
bx f
bx e
bx d
bx c
bx b
bx a
bx `
bx _
bx ^
bx ]
bx \
x[
bx Z
bx Y
bx X
bx W
bx V
bx U
bx T
xS
bx R
bx Q
xP
xO
bx N
bx M
xL
bx K
bx J
bx I
bx H
bx G
bx F
xE
xD
bx C
bx B
bx A
bx @
bx ?
x>
bx =
bx <
x;
x:
x9
bx 8
x7
bz 6
05
14
bx 3
02
bx 1
bx 0
x/
0.
bx -
x,
bx +
x*
bx )
x(
bx '
bx &
x%
bx $
x#
x"
bz !
$end
#19
0L#
0R#
#20
0(
b0xxxxxxxxxxxxxxxxxxxxxxxxxxxxxxxx )
b0xxxxxxxxxxxxxxxxxxxxxxxxxxxxxxxx =#
b0xxxxxxxxxxxxxxxxxxxxxxxxxxxxxxxx N#
0*
0,
b0 O#
b0 _#
b0 Z#
b0 ]#
1^#
b1000 T#
b1 6#
b1000 b#
0a#
0A#
0?#
0%
b100000000 B#
b0 Q#
b100 <
b100 z
b100 Y"
b0 $
b0 =
b0 y
b0 U#
15
b0x )"
b0x *"
#30
b0 e"
b0 d"
b0 3#
b0 2#
b0 >"
b0 ="
b0 ?"
b11111111111111111111111111111100 ^
b11111111111111111111111111111100 \"
b11111111111111111111111111111100 c"
b0 _
b0 ["
b0 9#
b0 f
b0 4"
b0 S"
b0 h
b0 K"
b0 v"
0"
0#
0p
b0 e
b0 x
b0 X"
b0 0#
b0 X#
b0 W#
b0 Q
b0 I"
b0 s"
b0 R
b0 J"
b0 r"
0O
b0 N
b0 }
b0 Q"
b0 t"
b11111111111111111111111111111100 T
b11111111111111111111111111111100 M"
b11111111111111111111111111111100 P"
b11111111111111111111111111111100 q"
b0 U
b0 R"
b0 p"
b0 z"
b0 V
b0 5"
b0 L"
b0 o"
b0 ]
b0 %"
b0 i"
b0 Z
b0 k"
b0 W
b0 n"
b0 y"
b0 Y
b0 l"
b0 w"
b0 \
b0 O"
b0 j"
b0 X
b0 m"
b0 x"
0P
0[
0D
b0 F
b0 $#
b0 )#
b0 G
b0 F"
b0 ##
b0 M
b0 |"
b0 %#
b0 K
b0 }"
b0 '#
b0 I
b0 !#
b0 (#
b0 H
b0 G"
b0 "#
b0 J
b0 v
b0 ~"
0E
0L
b0 ?
b0 U"
b0 /#
b0 @
b0 V"
b0 +#
b0 C
b0 W"
b0 *#
b0 B
b0 ,#
b0 1#
b0 A
b0 T"
b0 .#
0>
#40
1d#
1.
1n
12
b0 3
b0 \#
b0 c#
1/
0Y#
1`#
b100000 6#
04
#50
b0 )"
b0 *"
b0 $"
b0 #"
b0 !"
19"
07"
1:"
08"
06"
1;"
b0 ."
b0 /"
b0 0"
b0 1"
b0 ("
b0 '"
b0 +"
b0 &"
b0 3"
b0 ""
#60
07
b0 r
b0 <"
b0 u"
b0 `
b0 g"
b0 5#
b0 a
b0 h"
b0 4#
05
#80
14
#120
04
#160
14
#200
04
#240
14
#280
04
#320
14
#360
04
#400
14
#440
04
#480
14
bx10010011 1
bx10010011 V#
bx10010011 e#
#520
04
#560
14
#600
04
#640
14
#680
04
#720
14
#760
04
#800
14
#840
04
#880
14
bx0000000010010011 1
bx0000000010010011 V#
bx0000000010010011 e#
#920
04
#960
14
#1000
04
#1040
14
#1080
04
#1120
14
#1160
04
#1200
14
#1240
04
#1280
14
bx101000000000000010010011 1
bx101000000000000010010011 V#
bx101000000000000010010011 e#
#1320
04
#1360
14
#1400
04
#1440
14
#1480
04
#1520
14
#1560
04
#1600
14
#1640
04
#1680
14
bx00000000101000000000000010010011 1
bx00000000101000000000000010010011 V#
bx00000000101000000000000010010011 e#
#1720
04
#1760
14
#1800
04
#1840
14
#1880
04
#1920
14
#1960
04
#2000
14
#2040
04
#2080
14
bx0001001100000000101000000000000010010011 1
bx0001001100000000101000000000000010010011 V#
bx0001001100000000101000000000000010010011 e#
#2120
04
#2160
14
#2200
04
#2240
14
#2280
04
#2320
14
#2360
04
#2400
14
#2440
04
#2480
14
bx011000010001001100000000101000000000000010010011 1
bx011000010001001100000000101000000000000010010011 V#
bx011000010001001100000000101000000000000010010011 e#
#2520
04
#2560
14
#2600
04
#2640
14
#2680
04
#2720
14
#2760
04
#2800
14
#2840
04
#2880
14
bx01010000011000010001001100000000101000000000000010010011 1
bx01010000011000010001001100000000101000000000000010010011 V#
bx01010000011000010001001100000000101000000000000010010011 e#
#2920
04
#2960
14
#3000
04
#3040
14
#3080
04
#3120
14
#3160
04
#3200
14
#3240
04
#3280
14
bx0000000001010000011000010001001100000000101000000000000010010011 1
bx0000000001010000011000010001001100000000101000000000000010010011 V#
bx0000000001010000011000010001001100000000101000000000000010010011 e#
#3320
04
#3360
14
#3400
04
#3440
14
#3480
04
#3520
14
#3560
04
#3600
14
#3640
04
#3680
14
bx000100110000000001010000011000010001001100000000101000000000000010010011 1
bx000100110000000001010000011000010001001100000000101000000000000010010011 V#
bx000100110000000001010000011000010001001100000000101000000000000010010011 e#
#3720
04
#3760
14
#3800
04
#3840
14
#3880
04
#3920
14
#3960
04
#4000
14
#4040
04
#4080
14
bx00000000000100110000000001010000011000010001001100000000101000000000000010010011 1
bx00000000000100110000000001010000011000010001001100000000101000000000000010010011 V#
bx00000000000100110000000001010000011000010001001100000000101000000000000010010011 e#
#4120
04
#4160
14
#4200
04
#4240
14
#4280
04
#4320
14
#4360
04
#4400
14
#4440
04
#4480
14
bx0000000000000000000100110000000001010000011000010001001100000000101000000000000010010011 1
bx0000000000000000000100110000000001010000011000010001001100000000101000000000000010010011 V#
bx0000000000000000000100110000000001010000011000010001001100000000101000000000000010010011 e#
#4520
04
#4560
14
#4600
04
#4640
14
#4680
04
#4720
14
#4760
04
#4800
14
#4840
04
#4880
14
bx000000000000000000000000000100110000000001010000011000010001001100000000101000000000000010010011 1
bx000000000000000000000000000100110000000001010000011000010001001100000000101000000000000010010011 V#
bx000000000000000000000000000100110000000001010000011000010001001100000000101000000000000010010011 e#
#4920
04
#4960
14
#5000
04
#5040
14
#5080
04
#5120
14
#5160
04
#5200
14
#5240
04
#5280
14
bx00010011000000000000000000000000000100110000000001010000011000010001001100000000101000000000000010010011 1
bx00010011000000000000000000000000000100110000000001010000011000010001001100000000101000000000000010010011 V#
bx00010011000000000000000000000000000100110000000001010000011000010001001100000000101000000000000010010011 e#
#5320
04
#5360
14
#5400
04
#5440
14
#5480
04
#5520
14
#5560
04
#5600
14
#5640
04
#5680
14
bx0000000000010011000000000000000000000000000100110000000001010000011000010001001100000000101000000000000010010011 1
bx0000000000010011000000000000000000000000000100110000000001010000011000010001001100000000101000000000000010010011 V#
bx0000000000010011000000000000000000000000000100110000000001010000011000010001001100000000101000000000000010010011 e#
#5720
04
#5760
14
#5800
04
#5840
14
#5880
04
#5920
14
#5960
04
#6000
14
#6040
04
#6080
14
bx000000000000000000010011000000000000000000000000000100110000000001010000011000010001001100000000101000000000000010010011 1
bx000000000000000000010011000000000000000000000000000100110000000001010000011000010001001100000000101000000000000010010011 V#
bx000000000000000000010011000000000000000000000000000100110000000001010000011000010001001100000000101000000000000010010011 e#
#6120
04
#6160
14
#6200
04
#6240
14
#6280
04
#6320
14
#6360
04
#6400
14
#6440
04
#6480
1a#
b10011000000000000000000000000000100110000000001010000011000010001001100000000101000000000000010010011 X#
bx 3
bx \#
bx c#
02
14
0d#
0.
b10011000000000000000000000000000100110000000001010000011000010001001100000000101000000000000010010011 1
b10011000000000000000000000000000100110000000001010000011000010001001100000000101000000000000010010011 V#
b10011000000000000000000000000000100110000000001010000011000010001001100000000101000000000000010010011 e#
#6500
b101000000000000010010011 0
b101000000000000010010011 l
b101000000000000010010011 Z"
b101000000000000010010011 [#
1Y#
#6520
04
#6560
0n
0^#
0/
14
#6570
bx N
bx }
bx Q"
bx t"
bx ]
bx %"
bx i"
bx Z
bx k"
bx \
bx O"
bx j"
xP
bx @
bx V"
bx +#
b1 e"
b1010 d"
b1010 3#
b10011 ?"
b100 {
b101000000000000010010011 _
b101000000000000010010011 ["
b101000000000000010010011 9#
b100 ^
b100 \"
b100 c"
#6580
xO
bx W
bx n"
bx y"
bx Y
bx l"
bx w"
bx X
bx m"
bx x"
x[
bx F
bx $#
bx )#
b1010 8
b1010 f"
b1010 <#
b1010 ;#
b1 ]#
1^#
b0 m
b0 B"
b0 _"
b0 8#
b0 s
b0 @"
b0 ]"
1:
0o
b1 q
b1 A"
b1 ^"
19
b0 j
b0 D"
b0 a"
b0 i
b0 E"
b0 b"
b0 k
b0 C"
b0 `"
b1000 <
b1000 z
b1000 Y"
b100 $
b100 =
b100 y
b100 U#
#6600
b10100000110000100010011 0
b10100000110000100010011 l
b10100000110000100010011 Z"
b10100000110000100010011 [#
04
#6640
0^#
14
#6650
b1010 f
b1010 4"
b1010 S"
b1 h
b1 K"
b1 v"
bx ?
bx U"
bx /#
bx H
bx G"
bx "#
bx J
bx v
bx ~"
xL
b1010 R
b1010 J"
b1010 r"
b1010 N
b1010 }
b1010 Q"
b1010 t"
b1000 T
b1000 M"
b1000 P"
b1000 q"
b0 ]
b0 %"
b0 i"
b0 Z
b0 k"
b1 \
b1 O"
b1 j"
1P
b101 8
b101 f"
b101 <#
b101 ;#
b10 e"
b101 d"
b101 3#
b110 ="
b1000 {
b1 Q
b1 I"
b1 s"
b10100000110000100010011 _
b10100000110000100010011 ["
b10100000110000100010011 9#
b1000 ^
b1000 \"
b1000 c"
#6660
bx I
bx !#
bx (#
xE
1O
b0 W
b0 n"
b0 y"
b0 Y
b0 l"
b0 w"
b0 X
b0 m"
b0 x"
0[
b10 ]#
1^#
b110 s
b110 @"
b110 ]"
b1100 <
b1100 z
b1100 Y"
b1000 $
b1000 =
b1000 y
b1000 U#
#6670
b1 )"
b1 *"
0,"
b1010 $"
b1010 #"
09"
17"
0:"
18"
16"
0;"
b0 -"
b0 2"
b11111111111111111111111111110110 &"
b1010 3"
b1010 ""
#6680
b10011 0
b10011 l
b10011 Z"
b10011 [#
b1010 r
b1010 <"
b1010 u"
04
#6720
0^#
14
#6730
b101 f
b101 4"
b101 S"
b101 R
b101 J"
b101 r"
b101 N
b101 }
b101 Q"
b101 t"
b110 ]
b110 %"
b110 i"
b1010 M
b1010 |"
b1010 %#
b0 H
b0 G"
b0 "#
b0 J
b0 v
b0 ~"
0L
bx A
bx T"
bx .#
x>
b0 8
b0 f"
b0 <#
b0 ;#
b0 e"
b0 d"
b0 3#
b0 ="
b10 h
b10 K"
b10 v"
b1100 {
b10011 _
b10011 ["
b10011 9#
b1100 ^
b1100 \"
b1100 c"
b10 Q
b10 I"
b10 s"
#6740
b1 K
b1 }"
b1 '#
b0 I
b0 !#
b0 (#
1E
b11 ]#
1^#
b0 s
b0 @"
b0 ]"
b10000 <
b10000 z
b10000 Y"
b1100 $
b1100 =
b1100 y
b1100 U#
#6750
b101 $"
b101 #"
b11111111111111111111111111111011 &"
b101 3"
b101 ""
#6760
b101 r
b101 <"
b101 u"
04
#6800
0^#
14
#6810
b1010 e
b1010 x
b1010 X"
b1010 0#
b0 f
b0 4"
b0 S"
b1010 C
b1010 W"
b1010 *#
b1 B
b1 ,#
b1 1#
b0 A
b0 T"
b0 .#
1>
b101 M
b101 |"
b101 %#
b0 R
b0 J"
b0 r"
b0 N
b0 }
b0 Q"
b0 t"
b10000 T
b10000 M"
b10000 P"
b10000 q"
b0 ]
b0 %"
b0 i"
b0 h
b0 K"
b0 v"
b10000 {
b0 Q
b0 I"
b0 s"
b10000 ^
b10000 \"
b10000 c"
#6820
b10 K
b10 }"
b10 '#
b1 Z#
b0 ]#
1^#
b10100 <
b10100 z
b10100 Y"
b10000 $
b10000 =
b10000 y
b10000 U#
#6830
b0 X#
0a#
b0 )"
b0 *"
x,"
b0 $"
b0 #"
19"
07"
1:"
08"
06"
1;"
bx -"
bx 2"
b0 &"
b0 3"
b0 ""
#6840
1d#
1.
1n
12
b1 3
b1 \#
b1 c#
1/
0Y#
b0 r
b0 <"
b0 u"
04
#6880
b1 7#
14
#6920
04
#6960
14
#7000
04
#7040
14
#7080
04
#7120
14
#7160
04
#7200
14
#7240
04
#7280
14
b10011000000000000000000000000000100110000000001010000011000010001001100000000101000000000000010110011 1
b10011000000000000000000000000000100110000000001010000011000010001001100000000101000000000000010110011 V#
b10011000000000000000000000000000100110000000001010000011000010001001100000000101000000000000010110011 e#
#7320
04
#7360
14
#7400
04
#7440
14
#7480
04
#7520
14
#7560
04
#7600
14
#7640
04
