CPU/RISCV_CPU/cpu_wavedata.vcd
$date
	Wed Sep 22 19:48:38 2021
$end
$version
	Icarus Verilog
$end
$timescale
	100ps
$end
$scope module cpu_tb $end
$var wire 32 ! M_ADDRESS [31:0] $end
$var wire 1 " WRITE $end
$var wire 1 # READ $end
$var wire 32 $ PC [31:0] $end
$var wire 1 % M_inter_BUSYWAIT $end
$var wire 32 & M_WRITEDATA [31:0] $end
$var wire 32 ' M_READDATA [31:0] $end
$var wire 1 ( M_BUSYWAIT $end
$var wire 128 ) MEM_WRITEDATA [127:0] $end
$var wire 1 * MEM_WRITE $end
$var wire 128 + MEM_READDATA [127:0] $end
$var wire 1 , MEM_READ $end
$var wire 32 - MEM_ADDRESS [31:0] $end
$var wire 1 . I_inter_BUSYWAIT $end
$var wire 1 / I_BUSYWAIT $end
$var wire 32 0 INSTRUCTIONS [31:0] $end
$var wire 128 1 IMEM_READDATA [127:0] $end
$var wire 1 2 IMEM_READ $end
$var wire 28 3 IMEM_ADDRESS [27:0] $end
$var reg 1 4 CLK $end
$var reg 1 5 RESET $end
$scope module cpu1 $end
$var wire 1 4 CLK $end
$var wire 32 6 M_ADDRESS [31:0] $end
$var wire 1 5 RESET $end
$var wire 1 7 ZERO $end
$var wire 1 " WRITE $end
$var wire 32 8 VAL_OUT [31:0] $end
$var wire 32 9 SIGNOUT [31:0] $end
$var wire 1 : RESET2 $end
$var wire 1 ; REG_WRITE $end
$var wire 1 < REG_DEST $end
$var wire 1 # READ $end
$var wire 1 = PC_SEL $end
$var wire 32 > PC_4 [31:0] $end
$var wire 32 ? PC [31:0] $end
$var wire 1 @ P4_REG_WRITE_OUT $end
$var wire 32 A P4_PC_NEXT_OUT [31:0] $end
$var wire 32 B P4_M_READDATA_OUT [31:0] $end
$var wire 2 C P4_MEM_TO_REG_OUT [1:0] $end
$var wire 5 D P4_IN_ADDRESS_OUT [4:0] $end
$var wire 5 E P4_IN_ADDRESS [4:0] $end
$var wire 32 F P4_ALU_OUT [31:0] $end
$var wire 1 G P3_ZERO_OUT $end
$var wire 1 H P3_REG_WRITE_OUT $end
$var wire 32 I P3_PC_NEXT_OUT [31:0] $end
$var wire 32 J P3_OUT2_OUT [31:0] $end
$var wire 3 K P3_MEM_WRITE_OUT [2:0] $end
$var wire 2 L P3_MEM_TO_REG_OUT [1:0] $end
$var wire 3 M P3_MEM_READ_OUT [2:0] $end
$var wire 5 N P3_IN_ADDRESS_OUT [4:0] $end
$var wire 1 O P3_BRANCH_OUT $end
$var wire 32 P P3_ALU_OUT [31:0] $end
$var wire 32 Q P2_SIGNOUT_OUT [31:0] $end
$var wire 1 R P2_REG_WRITE_OUT $end
$var wire 1 S P2_REG_DEST_OUT $end
$var wire 5 T P2_RD2_OUT [4:0] $end
$var wire 5 U P2_RD1_OUT [4:0] $end
$var wire 1 V P2_PC_SEL_OUT $end
$var wire 32 W P2_PC_4_OUT [31:0] $end
$var wire 32 X P2_OUT2_OUT [31:0] $end
$var wire 5 Y P2_OUT2ADDRESS_OUT [4:0] $end
$var wire 32 Z P2_OUT1_OUT [31:0] $end
$var wire 5 [ P2_OUT1ADDRESS_OUT [4:0] $end
$var wire 3 \ P2_MEM_WRITE_OUT [2:0] $end
$var wire 2 ] P2_MEM_TO_REG_OUT [1:0] $end
$var wire 3 ^ P2_MEM_READ_OUT [2:0] $end
$var wire 3 _ P2_IMMI_SEL_OUT [2:0] $end
$var wire 1 ` P2_BRANCH_OUT $end
$var wire 2 a P2_ALU_SOURCE_OUT [1:0] $end
$var wire 5 b P2_ALU_OP_OUT [4:0] $end
$var wire 32 c P1_PC_4_OUT [31:0] $end
$var wire 32 d P1_INSTRUCTION_OUT [31:0] $end
$var wire 32 e OUT2 [31:0] $end
$var wire 32 f OUT1 [31:0] $end
$var wire 32 g M_WRITEDATA [31:0] $end
$var wire 32 h M_READDATA_OUT [31:0] $end
$var wire 32 i M_READDATA [31:0] $end
$var wire 1 ( M_BUSYWAIT $end
$var wire 32 j MUX4_OUT [31:0] $end
$var wire 32 k MUX3_OUT [31:0] $end
$var wire 32 l MUX2_OUT [31:0] $end
$var wire 32 m MUX2_ALU_OUT [31:0] $end
$var wire 5 n MUX1_OUT [4:0] $end
$var wire 32 o MUX1_ALU_OUT [31:0] $end
$var wire 3 p MEM_WRITE [2:0] $end
$var wire 2 q MEM_TO_REG [1:0] $end
$var wire 3 r MEM_READ [2:0] $end
$var wire 1 / I_BUSYWAIT $end
$var wire 32 s INSTRUCTIONS [31:0] $end
$var wire 3 t IMMI_SEL [2:0] $end
$var wire 2 u FORWAD2 [1:0] $end
$var wire 2 v FORWAD1 [1:0] $end
$var wire 1 w CONT_BRANCH $end
$var wire 1 x BUSYWAIT $end
$var wire 1 y BRANCH $end
$var wire 1 z AND_OUT $end
$var wire 2 { ALU_SOURCE [1:0] $end
$var wire 32 | ALU_OUT [31:0] $end
$var wire 5 } ALU_OP [4:0] $end
$var wire 32 ~ ADDER_OUT [31:0] $end
$scope module AND_21 $end
$var wire 1 z Y $end
$var wire 1 G B $end
$var wire 1 O A $end
$upscope $end
$scope module MEM_READ_con1 $end
$var wire 32 !" IN [31:0] $end
$var wire 3 "" CON [2:0] $end
$var reg 1 # MEM_READ $end
$var reg 32 #" OUT [31:0] $end
$upscope $end
$scope module OR_21 $end
$var wire 1 x Y $end
$var wire 1 ( B $end
$var wire 1 / A $end
$upscope $end
$scope module PC_UNIT1 $end
$var wire 1 x BUSY_WAIT $end
$var wire 1 4 CLK $end
$var wire 1 5 RESET $end
$var wire 1 w CON_BRANCH $end
$var wire 32 $" BRANCH_PC [31:0] $end
$var reg 32 %" PC [31:0] $end
$var reg 32 &" PC_4 [31:0] $end
$var reg 32 '" pc_hold [31:0] $end
$upscope $end
$scope module Pip_delay $end
$var wire 5 (" INPUT [4:0] $end
$var reg 5 )" OUTPUT [4:0] $end
$upscope $end
$scope module adder1 $end
$var wire 32 *" INPUT2 [31:0] $end
$var wire 32 +" INPUT1 [31:0] $end
$var reg 32 ," RESULT [31:0] $end
$upscope $end
$scope module alu1 $end
$var wire 32 -" RES_AND [31:0] $end
$var wire 32 ." RES_FWD [31:0] $end
$var wire 32 /" RES_OR [31:0] $end
$var wire 32 0" RES_XOR [31:0] $end
$var wire 5 1" SELECT [4:0] $end
$var wire 32 2" RES_SUB [31:0] $end
$var wire 32 3" RES_SRL [31:0] $end
$var wire 32 4" RES_SRA [31:0] $end
$var wire 32 5" RES_SLTU [31:0] $end
$var wire 32 6" RES_SLT [31:0] $end
$var wire 32 7" RES_SLL [31:0] $end
$var wire 1 8" RES_REMU $end
$var wire 32 9" RES_REM [31:0] $end
$var wire 32 :" RES_MULHU [31:0] $end
$var wire 32 ;" RES_MULHSU [31:0] $end
$var wire 32 <" RES_MULH [31:0] $end
$var wire 32 =" RES_MUL [31:0] $end
$var wire 32 >" RES_DIV [31:0] $end
$var wire 32 ?" RES_ADD [31:0] $end
$var wire 32 @" DATA2 [31:0] $end
$var wire 32 A" DATA1 [31:0] $end
$var wire 1 B" BR_BNE $end
$var wire 1 C" BR_BLTU $end
$var wire 1 D" BR_BLT $end
$var wire 1 E" BR_BGEU $end
$var wire 1 F" BR_BGE $end
$var wire 1 G" BR_BEQ $end
$var reg 1 7 BRANCH $end
$var reg 32 H" RESULT [31:0] $end
$upscope $end
$scope module ctrl_unit1 $end
$var wire 1 4 CLK $end
$var wire 3 I" FUN3 [2:0] $end
$var wire 7 J" FUN7 [6:0] $end
$var wire 7 K" OP [6:0] $end
$var wire 1 5 RESET $end
$var reg 5 L" ALU_OP [4:0] $end
$var reg 2 M" ALU_SOURCE [1:0] $end
$var reg 1 y BRANCH $end
$var reg 3 N" IMMI_SEL [2:0] $end
$var reg 3 O" MEM_READ [2:0] $end
$var reg 2 P" MEM_TO_REG [1:0] $end
$var reg 3 Q" MEM_WRITE [2:0] $end
$var reg 1 = PC_SEL $end
$var reg 1 < REG_DEST $end
$var reg 1 ; REG_WRITE $end
$upscope $end
$scope module fowarding_unit1 $end
$var wire 1 4 CLK $end
$var wire 1 5 RESET $end
$var wire 5 R" RD2 [4:0] $end
$var wire 5 S" RD1 [4:0] $end
$var wire 5 T" PREV_PREV_INADD [4:0] $end
$var wire 5 U" PREV_INADD [4:0] $end
$var reg 2 V" FORWARD1 [1:0] $end
$var reg 2 W" FORWARD2 [1:0] $end
$upscope $end
$scope module mcon $end
$var wire 1 z BRANCH_IN $end
$var wire 32 X" VAL_IN [31:0] $end
$var reg 1 w BRANCH_OUT $end
$var reg 1 : RESET_2 $end
$var reg 32 Y" VAL_OUT [31:0] $end
$upscope $end
$scope module mem_write_con1 $end
$var wire 32 Z" IN [31:0] $end
$var wire 3 [" CON [2:0] $end
$var reg 1 " MEM_WRITE $end
$var reg 32 \" OUT [31:0] $end
$upscope $end
$scope module mux1 $end
$var wire 1 S SEL $end
$var wire 5 ]" IN1 [4:0] $end
$var wire 5 ^" IN0 [4:0] $end
$var reg 5 _" OUT [4:0] $end
$upscope $end
$scope module mux2 $end
$var wire 1 V SEL $end
$var wire 32 `" IN1 [31:0] $end
$var wire 32 a" IN0 [31:0] $end
$var reg 32 b" OUT [31:0] $end
$upscope $end
$scope module mux3 $end
$var wire 2 c" SEL [1:0] $end
$var wire 32 d" IN2 [31:0] $end
$var wire 32 e" IN1 [31:0] $end
$var wire 32 f" IN0 [31:0] $end
$var reg 32 g" OUT [31:0] $end
$upscope $end
$scope module mux_32bitx31 $end
$var wire 2 h" SEL [1:0] $end
$var wire 32 i" IN2 [31:0] $end
$var wire 32 j" IN1 [31:0] $end
$var wire 32 k" IN0 [31:0] $end
$var reg 32 l" OUT [31:0] $end
$upscope $end
$scope module mux_alu1 $end
$var wire 32 m" INPUT3 [31:0] $end
$var wire 2 n" SELECT [1:0] $end
$var wire 32 o" INPUT2 [31:0] $end
$var wire 32 p" INPUT1 [31:0] $end
$var reg 32 q" RESULT [31:0] $end
$upscope $end
$scope module mux_alu2 $end
$var wire 32 r" INPUT1 [31:0] $end
$var wire 32 s" INPUT3 [31:0] $end
$var wire 2 t" SELECT [1:0] $end
$var wire 32 u" INPUT2 [31:0] $end
$var reg 32 v" RESULT [31:0] $end
$upscope $end
$scope module pipeline11 $end
$var wire 1 x BUSY_WAIT $end
$var wire 1 4 CLK $end
$var wire 32 w" PC_INCREMENT4 [31:0] $end
$var wire 1 5 RESET $end
$var wire 1 : RESET2 $end
$var wire 32 x" INSTRUCTION [31:0] $end
$var reg 32 y" INSTRUCTION_OUT [31:0] $end
$var reg 32 z" PC_INCREMENT4_OUT [31:0] $end
$upscope $end
$scope module pipeline21 $end
$var wire 5 {" ALU_OP [4:0] $end
$var wire 2 |" ALU_SOURCE [1:0] $end
$var wire 1 y BRANCH $end
$var wire 1 x BUSY_WAIT $end
$var wire 1 4 CLK $end
$var wire 3 }" IMMI_SEL [2:0] $end
$var wire 3 ~" MEM_READ [2:0] $end
$var wire 2 !# MEM_TO_REG [1:0] $end
$var wire 3 "# MEM_WRITE [2:0] $end
$var wire 5 ## OUT1ADDRESS [4:0] $end
$var wire 5 $# OUT2ADDRESS [4:0] $end
$var wire 32 %# PC_INCREMENT4 [31:0] $end
$var wire 1 = PC_SEL $end
$var wire 5 &# RD1 [4:0] $end
$var wire 5 '# RD2 [4:0] $end
$var wire 1 < REG_DEST $end
$var wire 1 ; REG_WRITE $end
$var wire 1 5 RESET $end
$var wire 1 : RESET2 $end
$var wire 32 (# SIGN_EXTENDED [31:0] $end
$var wire 32 )# OUT2 [31:0] $end
$var wire 32 *# OUT1 [31:0] $end
$var reg 5 +# ALU_OP_OUT [4:0] $end
$var reg 2 ,# ALU_SOURCE_OUT [1:0] $end
$var reg 1 ` BRANCH_OUT $end
$var reg 3 -# IMMI_SEL_OUT [2:0] $end
$var reg 3 .# MEM_READ_OUT [2:0] $end
$var reg 2 /# MEM_TO_REG_OUT [1:0] $end
$var reg 3 0# MEM_WRITE_OUT [2:0] $end
$var reg 5 1# OUT1ADDRESS_OUT [4:0] $end
$var reg 32 2# OUT1_OUT [31:0] $end
$var reg 5 3# OUT2ADDRESS_OUT [4:0] $end
$var reg 32 4# OUT2_OUT [31:0] $end
$var reg 32 5# PC_INCREMENT4_OUT [31:0] $end
$var reg 1 V PC_SEL_OUT $end
$var reg 5 6# RD1_OUT [4:0] $end
$var reg 5 7# RD2_OUT [4:0] $end
$var reg 1 S REG_DEST_OUT $end
$var reg 1 R REG_WRITE_OUT $end
$var reg 32 8# SIGN_EXTENDED_OUT [31:0] $end
$upscope $end
$scope module pipeline31 $end
$var wire 32 9# ALU_RESULT [31:0] $end
$var wire 1 ` BRANCH_RES $end
$var wire 1 x BUSY_WAIT $end
$var wire 1 4 CLK $end
$var wire 5 :# IN_ADDRESS [4:0] $end
$var wire 3 ;# MEM_READ [2:0] $end
$var wire 2 <# MEM_TO_REG [1:0] $end
$var wire 3 =# MEM_WRITE [2:0] $end
$var wire 32 ># OUT2 [31:0] $end
$var wire 32 ?# PC_NEXT [31:0] $end
$var wire 1 R REG_WRITE $end
$var wire 1 5 RESET $end
$var wire 1 7 ZERO $end
$var reg 32 @# ALU_RESULT_OUT [31:0] $end
$var reg 1 O BRANCH_RES_OUT $end
$var reg 5 A# IN_ADDRESS_OUT [4:0] $end
$var reg 3 B# MEM_READ_OUT [2:0] $end
$var reg 2 C# MEM_TO_REG_OUT [1:0] $end
$var reg 3 D# MEM_WRITE_OUT [2:0] $end
$var reg 32 E# OUT2_OUT [31:0] $end
$var reg 32 F# PC_NEXT_OUT [31:0] $end
$var reg 1 H REG_WRITE_OUT $end
$var reg 1 G ZERO_OUT $end
$upscope $end
$scope module pipeline41 $end
$var wire 32 G# ALU_RESULT [31:0] $end
$var wire 1 x BUSY_WAIT $end
$var wire 1 4 CLK $end
$var wire 32 H# DATA_READED [31:0] $end
$var wire 5 I# IN_ADDRESS [4:0] $end
$var wire 2 J# MEM_TO_REG [1:0] $end
$var wire 32 K# PC_NEXT [31:0] $end
$var wire 1 H REG_WRITE $end
$var wire 1 5 RESET $end
$var reg 32 L# ALU_RESULT_OUT [31:0] $end
$var reg 32 M# DATA_READED_OUT [31:0] $end
$var reg 5 N# IN_ADDRESS_OUT [4:0] $end
$var reg 3 O# MEM_READ_OUT [2:0] $end
$var reg 2 P# MEM_TO_REG_OUT [1:0] $end
$var reg 32 Q# PC_NEXT_OUT [31:0] $end
$var reg 1 @ REG_WRITE_OUT $end
$upscope $end
$scope module reg_file1 $end
$var wire 1 4 CLK $end
$var wire 32 R# IN [31:0] $end
$var wire 5 S# INADDRESS [4:0] $end
$var wire 5 T# OUT1ADDRESS [4:0] $end
$var wire 5 U# OUT2ADDRESS [4:0] $end
$var wire 1 5 RESET $end
$var wire 1 @ WRITEENABLE $end
$var reg 32 V# OUT1 [31:0] $end
$var reg 32 W# OUT2 [31:0] $end
$var integer 32 X# i [31:0] $end
$var integer 32 Y# wflag [31:0] $end
$upscope $end
$scope module sign1 $end
$var wire 3 Z# IMMI_SEL [2:0] $end
$var wire 32 [# SIGNIN [31:0] $end
$var reg 12 \# OFFSET [11:0] $end
$var reg 32 ]# SIGNHOLD [31:0] $end
$var reg 32 ^# SIGNOUT [31:0] $end
$upscope $end
$upscope $end
$scope module data_memory1 $end
$var wire 1 4 clock $end
$var wire 1 5 reset $end
$var wire 128 _# writedata [127:0] $end
$var wire 1 * write $end
$var wire 1 , read $end
$var wire 32 `# address [31:0] $end
$var reg 1 % busywait $end
$var reg 1 a# readaccess $end
$var reg 128 b# readdata [127:0] $end
$var reg 1 c# writeaccess $end
$var integer 32 d# i [31:0] $end
$upscope $end
$scope module dcache1 $end
$var wire 32 e# address [31:0] $end
$var wire 1 4 clock $end
$var wire 1 % mem_busywait $end
$var wire 128 f# mem_readdata [127:0] $end
$var wire 1 # read $end
$var wire 1 5 reset $end
$var wire 1 " write $end
$var wire 32 g# writedata [31:0] $end
$var wire 27 h# tag [26:0] $end
$var wire 2 i# offset [1:0] $end
$var wire 3 j# index [2:0] $end
$var reg 1 ( busywait $end
$var reg 27 k# cache_tag [26:0] $end
$var reg 128 l# data [127:0] $end
$var reg 1 m# dirty $end
$var reg 1 n# hit $end
$var reg 32 o# mem_address [31:0] $end
$var reg 1 , mem_read $end
$var reg 1 * mem_write $end
$var reg 128 p# mem_writedata [127:0] $end
$var reg 3 q# next_state [2:0] $end
$var reg 32 r# readdata [31:0] $end
$var reg 3 s# state [2:0] $end
$var reg 1 t# tagout $end
$var reg 1 u# valid $end
$var integer 32 v# i [31:0] $end
$upscope $end
$scope module instruction_cache1 $end
$var wire 1 4 clock $end
$var wire 32 w# pc [31:0] $end
$var wire 1 5 reset $end
$var wire 128 x# mem_readdata [127:0] $end
$var wire 1 . mem_busywait $end
$var reg 1 / busywait $end
$var reg 3 y# cache_tag [2:0] $end
$var reg 128 z# data [127:0] $end
$var reg 1 {# hit $end
$var reg 3 |# index [2:0] $end
$var reg 32 }# instruction [31:0] $end
$var reg 28 ~# mem_address [27:0] $end
$var reg 1 2 mem_read $end
$var reg 2 !$ offset [1:0] $end
$var reg 1 "$ read $end
$var reg 3 #$ tag [2:0] $end
$var reg 1 $$ tagout $end
$var reg 1 %$ valid $end
$var integer 32 &$ i [31:0] $end
$upscope $end
$scope module instruction_memory1 $end
$var wire 28 '$ address [27:0] $end
$var wire 1 4 clock $end
$var wire 1 2 read $end
$var reg 1 . busywait $end
$var reg 1 ($ readaccess $end
$var reg 128 )$ readdata [127:0] $end
$upscope $end
$upscope $end
$enddefinitions $end
#0
$dumpvars
bx )$
0($
bx '$
bx &$
1%$
x$$
bx #$
x"$
bx !$
bx ~#
bx }#
bx |#
x{#
bx z#
bx y#
bx x#
bx w#
bx v#
xu#
xt#
bx s#
bx r#
bx q#
bx p#
bx o#
xn#
xm#
bx l#
bx k#
bz j#
bz i#
bz h#
bx g#
bx f#
bz e#
bx d#
xc#
bx b#
xa#
bx `#
bx _#
bx ^#
bx ]#
bx \#
bx [#
bx Z#
bx Y#
bx X#
bx W#
bx V#
bx U#
bx T#
bx S#
bx R#
bx Q#
bx P#
bx O#
bx N#
bx M#
bx L#
bx K#
bx J#
bx I#
bx H#
bx G#
bx F#
bx E#
bx D#
bx C#
bx B#
bx A#
bx @#
bx ?#
bx >#
bx =#
bx <#
bx ;#
bx :#
bx 9#
bx 8#
bx 7#
bx 6#
bx 5#
bx 4#
bx 3#
bx 2#
bx 1#
bx 0#
bx /#
bx .#
bx -#
bx ,#
bx +#
bx *#
bx )#
bx (#
bx '#
bx &#
bx %#
bx $#
bx ##
bx "#
bx !#
bx ~"
bx }"
bx |"
bx {"
bx z"
bx y"
bx x"
bx w"
bx v"
bx u"
bx t"
bx s"
bx r"
bx q"
bx p"
bx o"
bx n"
bx m"
bx l"
bx k"
bx j"
bx i"
bx h"
bx g"
bx f"
bx e"
bx d"
bx c"
bx b"
bx a"
bx `"
bx _"
bx ^"
bx ]"
bx \"
bx ["
bx Z"
bx Y"
bx X"
bx W"
bx V"
bx U"
bx T"
bx S"
bx R"
bx Q"
bx P"
bx O"
bx N"
bx M"
bx L"
bx K"
bx J"
bx I"
bx H"
xG"
xF"
xE"
xD"
xC"
xB"
bx A"
bx @"
bx ?"
bx >"
bx ="
bx <"
bx ;"
bx :"
bx 9"
x8"
bx 7"
bx 6"
bx 5"
bx 4"
bx 3"
bx 2"
bx 1"
bx 0"
bx /"
bx ."
bx -"
bx ,"
bx +"
bx *"
bx )"
bx ("
b0 '"
bx &"
bx %"
bx $"
bx #"
bx ""
bx !"
bx ~
bx }
bx |
bx {
xz
xy
xx
xw
bx v
bx u
bx t
bx s
bx r
bx q
bx p
bx o
bx n
bx m
bx l
bx k
bx j
bx i
bx h
bx g
bx f
bx e
bx d
bx c
bx b
bx a
x`
bx _
bx ^
bx ]
bx \
bx [
bx Z
bx Y
bx X
bx W
xV
bx U
bx T
xS
xR
bx Q
bx P
xO
bx N
bx M
bx L
bx K
bx J
bx I
xH
xG
bx F
bx E
bx D
bx C
bx B
bx A
x@
bx ?
bx >
x=
x<
x;
x:
bx 9
bx 8
x7
bz 6
05
14
bx 3
02
bx 1
bx 0
x/
0.
bx -
x,
bx +
x*
bx )
x(
bx '
bx &
x%
bx $
x#
x"
bz !
$end
#10
0n#
0t#
#20
0(
b0xxxxxxxxxxxxxxxxxxxxxxxxxxxxxxxx )
b0xxxxxxxxxxxxxxxxxxxxxxxxxxxxxxxx _#
b0xxxxxxxxxxxxxxxxxxxxxxxxxxxxxxxx p#
0*
0,
b0 q#
b0 #$
b0 |#
b0 !$
1"$
b1000 v#
b1 X#
b1000 &$
0%$
0c#
0a#
0%
b100000000 d#
b0 s#
b100 >
b100 &"
b100 w"
b0 $
b0 ?
b0 %"
b0 w#
b0 u
b0 W"
b0 v
b0 V"
b0 n"
b0 t"
15
#30
b0 $#
b0 ##
b0 '#
b0 &#
b0 U#
b0 T#
b0 J"
b0 I"
b0 K"
b0 d
b0 y"
b0 [#
b0 o
b0 A"
b0 q"
0"
0#
0z
b0 z#
b0 y#
b0 Y
b0 R"
b0 3#
b0 [
b0 S"
b0 1#
b0 T
b0 ]"
b0 7#
b0 U
b0 ^"
b0 6#
0R
b0 Q
b0 +"
b0 e"
b0 8#
b11111111111111111111111111111100 W
b11111111111111111111111111111100 a"
b11111111111111111111111111111100 d"
b11111111111111111111111111111100 5#
b0 X
b0 f"
b0 4#
b0 >#
b0 Z
b0 `"
b0 p"
b0 2#
b0 b
b0 1"
b0 +#
b0 _
b0 -#
b0 \
b0 0#
b0 =#
b0 ^
b0 .#
b0 ;#
b0 a
b0 c"
b0 ,#
b0 ]
b0 /#
b0 <#
0S
0`
0G
b0 I
b0 F#
b0 K#
b0 J
b0 Z"
b0 E#
b0 P
b0 X"
b0 o"
b0 u"
b0 @#
b0 G#
b0 N
b0 ("
b0 U"
b0 A#
b0 L
b0 C#
b0 J#
b0 K
b0 ["
b0 D#
b0 M
b0 ""
b0 B#
0H
0O
b0 A
b0 i"
b0 Q#
b0 B
b0 j"
b0 M#
b0 F
b0 k"
b0 L#
b0 D
b0 T"
b0 N#
b0 S#
b0 C
b0 h"
b0 P#
0@
b0x 5"
b0x 6"
#40
b11111111111111111111111111111100 c
b11111111111111111111111111111100 z"
b11111111111111111111111111111100 %#
1($
1.
1x
b0 m
b0 @"
b0 v"
12
b0 3
b0 ~#
b0 '$
1/
b0 k
b0 g"
b0 r"
b0 n
b0 _"
b0 :#
0:
b0 8
b0 $"
b0 Y"
0w
b0 E
b0 )"
b0 I#
b0 j
b0 l"
b0 m"
b0 s"
b0 R#
0{#
1$$
b100000 X#
04
#50
b0 e
b0 )#
b0 W#
b0 f
b0 *#
b0 V#
#60
b0 -"
05
#70
07
b0 |
b0 H"
b0 9#
b0 5"
b0 6"
b0 0"
b0 /"
1E"
0C"
1F"
0D"
0B"
1G"
b0 :"
b0 ;"
b0 <"
b0 ="
b0 4"
b0 3"
b0 7"
b0 2"
b0 ?"
b0 ."
#80
14
#100
b1 u
b1 W"
b1 v
b1 V"
b1 n"
b1 t"
#120
04
#160
14
#200
04
#240
14
#280
04
#320
14
#360
04
#400
14
#440
04
#480
14
bx10010011 1
bx10010011 x#
bx10010011 )$
#520
04
#560
14
#600
04
#640
14
#680
04
#720
14
#760
04
#800
14
#840
04
#880
14
bx0000000010010011 1
bx0000000010010011 x#
bx0000000010010011 )$
#920
04
#960
14
#1000
04
#1040
14
#1080
04
#1120
14
#1160
04
#1200
14
#1240
04
#1280
14
bx010100000000000010010011 1
bx010100000000000010010011 x#
bx010100000000000010010011 )$
#1320
04
#1360
14
#1400
04
#1440
14
#1480
04
#1520
14
#1560
04
#1600
14
#1640
04
#1680
14
bx00000000010100000000000010010011 1
bx00000000010100000000000010010011 x#
bx00000000010100000000000010010011 )$
#1720
04
#1760
14
#1800
04
#1840
14
#1880
04
#1920
14
#1960
04
#2000
14
#2040
04
#2080
14
bx0001001100000000010100000000000010010011 1
bx0001001100000000010100000000000010010011 x#
bx0001001100000000010100000000000010010011 )$
#2120
04
#2160
14
#2200
04
#2240
14
#2280
04
#2320
14
#2360
04
#2400
14
#2440
04
#2480
14
bx011000010001001100000000010100000000000010010011 1
bx011000010001001100000000010100000000000010010011 x#
bx011000010001001100000000010100000000000010010011 )$
#2520
04
#2560
14
#2600
04
#2640
14
#2680
04
#2720
14
#2760
04
#2800
14
#2840
04
#2880
14
bx01010000011000010001001100000000010100000000000010010011 1
bx01010000011000010001001100000000010100000000000010010011 x#
bx01010000011000010001001100000000010100000000000010010011 )$
#2920
04
#2960
14
#3000
04
#3040
14
#3080
04
#3120
14
#3160
04
#3200
14
#3240
04
#3280
14
bx0000000001010000011000010001001100000000010100000000000010010011 1
bx0000000001010000011000010001001100000000010100000000000010010011 x#
bx0000000001010000011000010001001100000000010100000000000010010011 )$
#3320
04
#3360
14
#3400
04
#3440
14
#3480
04
#3520
14
#3560
04
#3600
14
#3640
04
#3680
14
bx101100110000000001010000011000010001001100000000010100000000000010010011 1
bx101100110000000001010000011000010001001100000000010100000000000010010011 x#
bx101100110000000001010000011000010001001100000000010100000000000010010011 )$
#3720
04
#3760
14
#3800
04
#3840
14
#3880
04
#3920
14
#3960
04
#4000
14
#4040
04
#4080
14
bx10000001101100110000000001010000011000010001001100000000010100000000000010010011 1
bx10000001101100110000000001010000011000010001001100000000010100000000000010010011 x#
bx10000001101100110000000001010000011000010001001100000000010100000000000010010011 )$
#4120
04
#4160
14
#4200
04
#4240
14
#4280
04
#4320
14
#4360
04
#4400
14
#4440
04
#4480
14
bx0010000010000001101100110000000001010000011000010001001100000000010100000000000010010011 1
bx0010000010000001101100110000000001010000011000010001001100000000010100000000000010010011 x#
bx0010000010000001101100110000000001010000011000010001001100000000010100000000000010010011 )$
#4520
04
#4560
14
#4600
04
#4640
14
#4680
04
#4720
14
#4760
04
#4800
14
#4840
04
#4880
14
bx000000000010000010000001101100110000000001010000011000010001001100000000010100000000000010010011 1
bx000000000010000010000001101100110000000001010000011000010001001100000000010100000000000010010011 x#
bx000000000010000010000001101100110000000001010000011000010001001100000000010100000000000010010011 )$
#4920
04
#4960
14
#5000
04
#5040
14
#5080
04
#5120
14
#5160
04
#5200
14
#5240
04
#5280
14
bx00100011000000000010000010000001101100110000000001010000011000010001001100000000010100000000000010010011 1
bx00100011000000000010000010000001101100110000000001010000011000010001001100000000010100000000000010010011 x#
bx00100011000000000010000010000001101100110000000001010000011000010001001100000000010100000000000010010011 )$
#5320
04
#5360
14
#5400
04
#5440
14
#5480
04
#5520
14
#5560
04
#5600
14
#5640
04
#5680
14
bx0010001000100011000000000010000010000001101100110000000001010000011000010001001100000000010100000000000010010011 1
bx0010001000100011000000000010000010000001101100110000000001010000011000010001001100000000010100000000000010010011 x#
bx0010001000100011000000000010000010000001101100110000000001010000011000010001001100000000010100000000000010010011 )$
#5720
04
#5760
14
#5800
04
#5840
14
#5880
04
#5920
14
#5960
04
#6000
14
#6040
04
#6080
14
bx001100000010001000100011000000000010000010000001101100110000000001010000011000010001001100000000010100000000000010010011 1
bx001100000010001000100011000000000010000010000001101100110000000001010000011000010001001100000000010100000000000010010011 x#
bx001100000010001000100011000000000010000010000001101100110000000001010000011000010001001100000000010100000000000010010011 )$
#6120
04
#6160
14
#6200
04
#6240
14
#6280
04
#6320
14
#6360
04
#6400
14
#6440
04
#6480
1%$
b1100000010001000100011000000000010000010000001101100110000000001010000011000010001001100000000010100000000000010010011 z#
bx 3
bx ~#
bx '$
02
14
0($
0.
b1100000010001000100011000000000010000010000001101100110000000001010000011000010001001100000000010100000000000010010011 1
b1100000010001000100011000000000010000010000001101100110000000001010000011000010001001100000000010100000000000010010011 x#
b1100000010001000100011000000000010000010000001101100110000000001010000011000010001001100000000010100000000000010010011 )$
#6500
b10100000000000010010011 0
b10100000000000010010011 s
b10100000000000010010011 x"
b10100000000000010010011 }#
1{#
#6520
04
#6560
0x
0"$
0/
14
#6570
bx Q
bx +"
bx e"
bx 8#
bx b
bx 1"
bx +#
bx _
bx -#
bx a
bx c"
bx ,#
xS
bx B
bx j"
bx M#
b100 '"
#6580
bx \
bx 0#
bx =#
bx ^
bx .#
bx ;#
x`
bx I
bx F#
bx K#
b1 !$
1"$
b1 $#
b101 ##
b1 '#
b101 &#
b101 U#
b10011 K"
b1000 >
b1000 &"
b1000 w"
b100 $
b100 ?
b100 %"
b100 w#
b10100000000000010010011 d
b10100000000000010010011 y"
b10100000000000010010011 [#
b100 c
b100 z"
b100 %#
#6590
xR
bx ]
bx /#
bx <#
b0 t
b0 N"
b0 }"
b0 Z#
b0 }
b0 L"
b0 {"
1<
0y
b1 {
b1 M"
b1 |"
1;
b0 q
b0 P"
b0 !#
b0 p
b0 Q"
b0 "#
b0 r
b0 O"
b0 ~"
#6600
b101 9
b101 (#
b101 ^#
b101 ]#
b10100000110000100010011 0
b10100000110000100010011 s
b10100000110000100010011 x"
b10100000110000100010011 }#
04
#6640
0"$
14
#6650
bx A
bx i"
bx Q#
bx K
bx ["
bx D#
bx M
bx ""
bx B#
xO
b1 Y
b1 R"
b1 3#
b101 [
b101 S"
b101 1#
b101 U
b101 ^"
b101 6#
b101 Q
b101 +"
b101 e"
b101 8#
b100 W
b100 a"
b100 d"
b100 5#
b0 b
b0 1"
b0 +#
b0 _
b0 -#
b1 a
b1 c"
b1 ,#
1S
b1000 '"
b1 T
b1 ]"
b1 7#
